<?xml version="1.0" encoding="UTF-8" standalone="no"?>
<!-- Created with Inkscape (http://www.inkscape.org/) -->

<svg
   width="173.75183mm"
   height="62.988121mm"
   viewBox="0 0 173.75183 62.988121"
   version="1.1"
   id="svg5"
   sodipodi:docname="lfsr.svg"
   inkscape:version="1.1.1 (3bf5ae0d25, 2021-09-20)"
   xmlns:inkscape="http://www.inkscape.org/namespaces/inkscape"
   xmlns:sodipodi="http://sodipodi.sourceforge.net/DTD/sodipodi-0.dtd"
   xmlns="http://www.w3.org/2000/svg"
   xmlns:svg="http://www.w3.org/2000/svg">
  <sodipodi:namedview
     id="namedview7"
     pagecolor="#ffffff"
     bordercolor="#999999"
     borderopacity="1"
     inkscape:pageshadow="0"
     inkscape:pageopacity="0"
     inkscape:pagecheckerboard="0"
     inkscape:document-units="mm"
     showgrid="false"
     inkscape:zoom="1"
     inkscape:cx="270.5"
     inkscape:cy="265.5"
     inkscape:window-width="960"
     inkscape:window-height="1046"
     inkscape:window-x="960"
     inkscape:window-y="0"
     inkscape:window-maximized="1"
     inkscape:current-layer="layer1"
     inkscape:snap-object-midpoints="true"
     inkscape:snap-smooth-nodes="true"
     inkscape:snap-intersection-paths="true"
     inkscape:snap-midpoints="true" />
  <defs
     id="defs2">
    <marker
       style="overflow:visible"
       id="marker28347"
       refX="0"
       refY="0"
       orient="auto"
       inkscape:stockid="Arrow1Lend"
       inkscape:isstock="true">
      <path
         transform="matrix(-0.8,0,0,-0.8,-10,0)"
         style="fill:context-stroke;fill-rule:evenodd;stroke:context-stroke;stroke-width:1pt"
         d="M 0,0 5,-5 -12.5,0 5,5 Z"
         id="path28345" />
    </marker>
    <marker
       style="overflow:visible"
       id="Arrow2Lstart"
       refX="0"
       refY="0"
       orient="auto"
       inkscape:stockid="Arrow2Lstart"
       inkscape:isstock="true">
      <path
         transform="matrix(1.1,0,0,1.1,1.1,0)"
         d="M 8.7185878,4.0337352 -2.2072895,0.01601326 8.7185884,-4.0017078 c -1.7454984,2.3720609 -1.7354408,5.6174519 -6e-7,8.035443 z"
         style="fill:context-stroke;fill-rule:evenodd;stroke:context-stroke;stroke-width:0.625;stroke-linejoin:round"
         id="path13469" />
    </marker>
    <marker
       style="overflow:visible"
       id="marker28329"
       refX="0"
       refY="0"
       orient="auto"
       inkscape:stockid="Arrow1Lend"
       inkscape:isstock="true">
      <path
         transform="matrix(-0.8,0,0,-0.8,-10,0)"
         style="fill:context-stroke;fill-rule:evenodd;stroke:context-stroke;stroke-width:1pt"
         d="M 0,0 5,-5 -12.5,0 5,5 Z"
         id="path28327" />
    </marker>
    <marker
       style="overflow:visible"
       id="marker28319"
       refX="0"
       refY="0"
       orient="auto"
       inkscape:stockid="Arrow1Lstart"
       inkscape:isstock="true">
      <path
         transform="matrix(0.8,0,0,0.8,10,0)"
         style="fill:context-stroke;fill-rule:evenodd;stroke:context-stroke;stroke-width:1pt"
         d="M 0,0 5,-5 -12.5,0 5,5 Z"
         id="path28317" />
    </marker>
    <marker
       style="overflow:visible"
       id="marker28309"
       refX="0"
       refY="0"
       orient="auto"
       inkscape:stockid="Arrow1Lstart"
       inkscape:isstock="true">
      <path
         transform="matrix(0.8,0,0,0.8,10,0)"
         style="fill:context-stroke;fill-rule:evenodd;stroke:context-stroke;stroke-width:1pt"
         d="M 0,0 5,-5 -12.5,0 5,5 Z"
         id="path28307" />
    </marker>
    <marker
       style="overflow:visible"
       id="marker13767"
       refX="0"
       refY="0"
       orient="auto"
       inkscape:stockid="Arrow1Lstart"
       inkscape:isstock="true">
      <path
         transform="matrix(0.8,0,0,0.8,10,0)"
         style="fill:context-stroke;fill-rule:evenodd;stroke:context-stroke;stroke-width:1pt"
         d="M 0,0 5,-5 -12.5,0 5,5 Z"
         id="path13765" />
    </marker>
    <marker
       style="overflow:visible"
       id="marker13757"
       refX="0"
       refY="0"
       orient="auto"
       inkscape:stockid="Arrow1Lstart"
       inkscape:isstock="true">
      <path
         transform="matrix(0.8,0,0,0.8,10,0)"
         style="fill:context-stroke;fill-rule:evenodd;stroke:context-stroke;stroke-width:1pt"
         d="M 0,0 5,-5 -12.5,0 5,5 Z"
         id="path13755" />
    </marker>
    <marker
       style="overflow:visible"
       id="Arrow2Lend"
       refX="0"
       refY="0"
       orient="auto"
       inkscape:stockid="Arrow2Lend"
       inkscape:isstock="true">
      <path
         transform="matrix(-1.1,0,0,-1.1,-1.1,0)"
         d="M 8.7185878,4.0337352 -2.2072895,0.01601326 8.7185884,-4.0017078 c -1.7454984,2.3720609 -1.7354408,5.6174519 -6e-7,8.035443 z"
         style="fill:context-stroke;fill-rule:evenodd;stroke:context-stroke;stroke-width:0.625;stroke-linejoin:round"
         id="path13472" />
    </marker>
    <marker
       style="overflow:visible"
       id="marker13739"
       refX="0"
       refY="0"
       orient="auto"
       inkscape:stockid="Arrow1Lstart"
       inkscape:isstock="true">
      <path
         transform="matrix(0.8,0,0,0.8,10,0)"
         style="fill:context-stroke;fill-rule:evenodd;stroke:context-stroke;stroke-width:1pt"
         d="M 0,0 5,-5 -12.5,0 5,5 Z"
         id="path13737" />
    </marker>
    <marker
       style="overflow:visible"
       id="marker13729"
       refX="0"
       refY="0"
       orient="auto"
       inkscape:stockid="Arrow1Lstart"
       inkscape:isstock="true">
      <path
         transform="matrix(0.8,0,0,0.8,10,0)"
         style="fill:context-stroke;fill-rule:evenodd;stroke:context-stroke;stroke-width:1pt"
         d="M 0,0 5,-5 -12.5,0 5,5 Z"
         id="path13727" />
    </marker>
    <marker
       style="overflow:visible"
       id="Arrow1Lstart"
       refX="0"
       refY="0"
       orient="auto"
       inkscape:stockid="Arrow1Lstart"
       inkscape:isstock="true">
      <path
         transform="matrix(0.8,0,0,0.8,10,0)"
         style="fill:context-stroke;fill-rule:evenodd;stroke:context-stroke;stroke-width:1pt"
         d="M 0,0 5,-5 -12.5,0 5,5 Z"
         id="path13451" />
    </marker>
    <marker
       style="overflow:visible"
       id="Arrow1Lend"
       refX="0"
       refY="0"
       orient="auto"
       inkscape:stockid="Arrow1Lend"
       inkscape:isstock="true">
      <path
         transform="matrix(-0.8,0,0,-0.8,-10,0)"
         style="fill:context-stroke;fill-rule:evenodd;stroke:context-stroke;stroke-width:1pt"
         d="M 0,0 5,-5 -12.5,0 5,5 Z"
         id="path13454" />
    </marker>
  </defs>
  <g
     inkscape:label="Layer 1"
     inkscape:groupmode="layer"
     id="layer1"
     transform="translate(-12.044572,-12.391177)">
    <rect
       style="fill:none;stroke:#000000;stroke-width:0.264999;stroke-linejoin:round"
       id="rect1128"
       width="20.262547"
       height="20.262547"
       x="23.563507"
       y="49.070805" />
    <rect
       style="fill:none;stroke:#000000;stroke-width:0.264999;stroke-linejoin:round"
       id="rect1128-5"
       width="20.262547"
       height="20.262547"
       x="43.826054"
       y="49.070808" />
    <rect
       style="fill:none;stroke:#000000;stroke-width:0.264999;stroke-linejoin:round"
       id="rect1128-1"
       width="20.262547"
       height="20.262547"
       x="64.0886"
       y="49.070808" />
    <rect
       style="fill:none;stroke:#000000;stroke-width:0.264999;stroke-linejoin:round"
       id="rect1128-5-7"
       width="20.262547"
       height="20.262547"
       x="84.351151"
       y="49.070812" />
    <rect
       style="fill:none;stroke:#000000;stroke-width:0.264999;stroke-linejoin:round"
       id="rect1128-3"
       width="20.262547"
       height="20.262547"
       x="104.61369"
       y="49.070812" />
    <rect
       style="fill:none;stroke:#000000;stroke-width:0.264999;stroke-linejoin:round"
       id="rect1128-5-9"
       width="20.262547"
       height="20.262547"
       x="124.87624"
       y="49.070816" />
    <rect
       style="fill:none;stroke:#000000;stroke-width:0.264999;stroke-linejoin:round"
       id="rect1128-1-3"
       width="20.262547"
       height="20.262547"
       x="145.13879"
       y="49.070816" />
    <rect
       style="fill:none;stroke:#000000;stroke-width:0.264999;stroke-linejoin:round"
       id="rect1128-5-7-2"
       width="20.262547"
       height="20.262547"
       x="165.40135"
       y="49.07082" />
    <path
       style="fill:none;stroke:#000000;stroke-width:0.264999;stroke-linejoin:round;marker-start:url(#marker13739)"
       d="M 23.563507,59.202076 H 12.177072 v 0 -38.802596 0 h 13.641904"
       id="path1857"
       sodipodi:nodetypes="cccccc" />
    <path
       style="fill:none;stroke:#000000;stroke-width:0.264999;stroke-linejoin:round;marker-end:url(#marker28347)"
       d="M 33.69478,49.070804 V 28.275282"
       id="path2581"
       sodipodi:nodetypes="cc" />
    <path
       style="fill:none;stroke:#000000;stroke-width:0.264999;stroke-linejoin:round"
       d="M 175.53262,49.07082 V 20.39948"
       id="path2842"
       sodipodi:nodetypes="cc" />
    <path
       style="fill:none;stroke:#000000;stroke-width:0.264999;stroke-linejoin:round;marker-start:url(#marker13739)"
       d="M 41.570584,20.39948 H 175.53262"
       id="path2957"
       sodipodi:nodetypes="cc" />
    <path
       style="fill:none;stroke:#000000;stroke-width:0.264999;stroke-linejoin:round;marker-end:url(#Arrow1Lend)"
       d="m 135.00752,49.070815 v -25.492077 0 H 45.559934 l -4.257839,-1.140884"
       id="path4741"
       sodipodi:nodetypes="ccccc" />
    <path
       style="fill:none;stroke:#000000;stroke-width:0.264999;stroke-linejoin:round;marker-end:url(#Arrow1Lend)"
       d="m 114.74496,49.070812 v -21.820983 0 H 45.559934 v 0 l -5.044622,-2.912513"
       id="path4743"
       sodipodi:nodetypes="cccccc" />
    <path
       style="fill:none;stroke:#000000;stroke-width:0.264999;stroke-linejoin:round;marker-end:url(#Arrow1Lend)"
       d="m 94.482421,49.070812 -2e-6,-16.806179 v 0 H 45.559934 l -6.29612,-6.296119"
       id="path11538"
       sodipodi:nodetypes="ccccc" />
    <text
       xml:space="preserve"
       style="font-size:3.52777px;line-height:120%;font-family:sans-serif;-inkscape-font-specification:'sans-serif, Normal';fill:#000000;fill-opacity:1;stroke:none;stroke-width:0.264999;stroke-linejoin:round"
       x="32.573402"
       y="75.29834"
       id="text14434"><tspan
         sodipodi:role="line"
         id="tspan14432"
         style="fill:#000000;fill-opacity:1;stroke:none;stroke-width:0.265"
         x="32.573402"
         y="75.29834">0</tspan><tspan
         sodipodi:role="line"
         style="fill:#000000;fill-opacity:1;stroke:none;stroke-width:0.265"
         x="32.573402"
         y="79.531662"
         id="tspan14436" /></text>
    <text
       xml:space="preserve"
       style="font-size:3.52777px;line-height:120%;font-family:sans-serif;-inkscape-font-specification:'sans-serif, Normal';fill:#000000;fill-opacity:1;stroke:none;stroke-width:0.264999;stroke-linejoin:round"
       x="52.620518"
       y="75.300064"
       id="text14434-8"><tspan
         sodipodi:role="line"
         id="tspan14432-7"
         style="fill:#000000;fill-opacity:1;stroke:none;stroke-width:0.265"
         x="52.620518"
         y="75.300064">1</tspan><tspan
         sodipodi:role="line"
         style="fill:#000000;fill-opacity:1;stroke:none;stroke-width:0.265"
         x="52.620518"
         y="79.533386"
         id="tspan14608" /><tspan
         sodipodi:role="line"
         style="fill:#000000;fill-opacity:1;stroke:none;stroke-width:0.265"
         x="52.620518"
         y="83.766716"
         id="tspan14436-0" /></text>
    <text
       xml:space="preserve"
       style="font-size:3.52777px;line-height:120%;font-family:sans-serif;-inkscape-font-specification:'sans-serif, Normal';fill:#000000;fill-opacity:1;stroke:none;stroke-width:0.264999;stroke-linejoin:round"
       x="72.951851"
       y="75.323318"
       id="text18670"><tspan
         sodipodi:role="line"
         id="tspan18668"
         style="stroke-width:0.265"
         x="72.951851"
         y="75.323318">2</tspan></text>
    <text
       xml:space="preserve"
       style="font-size:3.52777px;line-height:120%;font-family:sans-serif;-inkscape-font-specification:'sans-serif, Normal';fill:#000000;fill-opacity:1;stroke:none;stroke-width:0.264999;stroke-linejoin:round"
       x="93.143661"
       y="75.29834"
       id="text19840"><tspan
         sodipodi:role="line"
         id="tspan19838"
         style="stroke-width:0.265"
         x="93.143661"
         y="75.29834">3</tspan></text>
    <text
       xml:space="preserve"
       style="font-size:3.52777px;line-height:120%;font-family:sans-serif;-inkscape-font-specification:'sans-serif, Normal';fill:#000000;fill-opacity:1;stroke:none;stroke-width:0.264999;stroke-linejoin:round"
       x="113.44227"
       y="75.300064"
       id="text20812"><tspan
         sodipodi:role="line"
         id="tspan20810"
         style="stroke-width:0.265"
         x="113.44227"
         y="75.300064">4</tspan></text>
    <text
       xml:space="preserve"
       style="font-size:3.52777px;line-height:120%;font-family:sans-serif;-inkscape-font-specification:'sans-serif, Normal';fill:#000000;fill-opacity:1;stroke:none;stroke-width:0.264999;stroke-linejoin:round"
       x="133.54449"
       y="75.275085"
       id="text21300"><tspan
         sodipodi:role="line"
         id="tspan21298"
         style="stroke-width:0.265"
         x="133.54449"
         y="75.275085">5</tspan></text>
    <text
       xml:space="preserve"
       style="font-size:3.52777px;line-height:120%;font-family:sans-serif;-inkscape-font-specification:'sans-serif, Normal';fill:#000000;fill-opacity:1;stroke:none;stroke-width:0.264999;stroke-linejoin:round"
       x="153.77249"
       y="75.29834"
       id="text22008"><tspan
         sodipodi:role="line"
         id="tspan22006"
         style="stroke-width:0.265"
         x="153.77249"
         y="75.29834">6</tspan></text>
    <text
       xml:space="preserve"
       style="font-size:3.52777px;line-height:120%;font-family:sans-serif;-inkscape-font-specification:'sans-serif, Normal';fill:#000000;fill-opacity:1;stroke:none;stroke-width:0.264999;stroke-linejoin:round"
       x="173.93156"
       y="75.300064"
       id="text25920"><tspan
         sodipodi:role="line"
         id="tspan25918"
         style="stroke-width:0.265"
         x="173.93156"
         y="75.300064">7</tspan></text>
    <g
       id="g28482">
      <text
         xml:space="preserve"
         style="font-size:3.52777px;line-height:120%;font-family:sans-serif;-inkscape-font-specification:'sans-serif, Normal';fill:#000000;fill-opacity:1;stroke:none;stroke-width:0.264999;stroke-linejoin:round"
         x="30.135004"
         y="21.642523"
         id="text27474"><tspan
           sodipodi:role="line"
           id="tspan27472"
           style="stroke-width:0.265"
           x="30.135004"
           y="21.642523">XOR</tspan><tspan
           sodipodi:role="line"
           style="stroke-width:0.265"
           x="30.135004"
           y="25.875847"
           id="tspan28050" /><tspan
           sodipodi:role="line"
           style="stroke-width:0.265"
           x="30.135004"
           y="30.109171"
           id="tspan27604" /></text>
      <circle
         style="fill:none;stroke:#000000;stroke-width:0.264999;stroke-linejoin:round"
         id="path1324"
         cx="33.694782"
         cy="20.399481"
         r="7.8758039" />
      <path
         style="fill:none;stroke:#000000;stroke-width:0.264999;stroke-linejoin:round"
         d="m 25.818975,20.39948 h 15.751609 v 0"
         id="path1359" />
      <path
         style="fill:none;stroke:#000000;stroke-width:0.264999;stroke-linejoin:round"
         d="m 33.694779,12.523676 v 15.751606 0"
         id="path1474" />
    </g>
    <text
       xml:space="preserve"
       style="font-size:3.52777px;line-height:120%;font-family:sans-serif;-inkscape-font-specification:'sans-serif, Normal';fill:#000000;fill-opacity:1;stroke:none;stroke-width:0.264999;stroke-linejoin:round"
       x="13.666266"
       y="75.329346"
       id="text29212"><tspan
         sodipodi:role="line"
         id="tspan29210"
         style="stroke-width:0.265"
         x="13.666266"
         y="75.329346">bit</tspan></text>
  </g>
</svg>
