<?xml version="1.0" encoding="UTF-8" standalone="no"?>
<!-- Created with Inkscape (http://www.inkscape.org/) -->

<svg
   width="187.63452mm"
   height="44.043812mm"
   viewBox="0 0 187.63452 44.043812"
   version="1.1"
   id="svg5"
   inkscape:version="1.1.1 (3bf5ae0d25, 2021-09-20)"
   sodipodi:docname="revSetupFile.svg"
   xmlns:inkscape="http://www.inkscape.org/namespaces/inkscape"
   xmlns:sodipodi="http://sodipodi.sourceforge.net/DTD/sodipodi-0.dtd"
   xmlns="http://www.w3.org/2000/svg"
   xmlns:svg="http://www.w3.org/2000/svg">
  <sodipodi:namedview
     id="namedview7"
     pagecolor="#ffffff"
     bordercolor="#999999"
     borderopacity="1"
     inkscape:pageshadow="0"
     inkscape:pageopacity="0"
     inkscape:pagecheckerboard="0"
     inkscape:document-units="mm"
     showgrid="false"
     inkscape:zoom="2.5620932"
     inkscape:cx="513.05706"
     inkscape:cy="38.835433"
     inkscape:window-width="1920"
     inkscape:window-height="1046"
     inkscape:window-x="0"
     inkscape:window-y="0"
     inkscape:window-maximized="1"
     inkscape:current-layer="g83797"
     inkscape:snap-smooth-nodes="false"
     inkscape:snap-midpoints="true"
     inkscape:object-paths="true"
     fit-margin-top="0"
     fit-margin-left="0"
     fit-margin-right="0"
     fit-margin-bottom="0" />
  <defs
     id="defs2">
    <inkscape:path-effect
       effect="skeletal"
       id="path-effect86887"
       is_visible="true"
       lpeversion="1"
       pattern="M 0,4.9921382 C 0,2.2364779 2.2364779,0 4.9921382,0 c 2.7556604,0 4.9921383,2.2364779 4.9921383,4.9921382 0,2.7556604 -2.2364779,4.9921383 -4.9921383,4.9921383 C 2.2364779,9.9842765 0,7.7477986 0,4.9921382 Z"
       copytype="single_stretched"
       prop_scale="1"
       scale_y_rel="false"
       spacing="0"
       normal_offset="0"
       tang_offset="0"
       prop_units="false"
       vertical_pattern="false"
       hide_knot="false"
       fuse_tolerance="0" />
    <inkscape:path-effect
       effect="skeletal"
       id="path-effect86575"
       is_visible="true"
       lpeversion="1"
       pattern="M 0,4.9921382 C 0,2.2364779 2.2364779,0 4.9921382,0 c 2.7556604,0 4.9921383,2.2364779 4.9921383,4.9921382 0,2.7556604 -2.2364779,4.9921383 -4.9921383,4.9921383 C 2.2364779,9.9842765 0,7.7477986 0,4.9921382 Z"
       copytype="single_stretched"
       prop_scale="1"
       scale_y_rel="false"
       spacing="0"
       normal_offset="0"
       tang_offset="0"
       prop_units="false"
       vertical_pattern="false"
       hide_knot="false"
       fuse_tolerance="0" />
    <marker
       style="overflow:visible"
       id="marker85479"
       refX="0"
       refY="0"
       orient="auto"
       inkscape:stockid="Arrow1Mend"
       inkscape:isstock="true">
      <path
         transform="matrix(-0.4,0,0,-0.4,-4,0)"
         style="fill:context-stroke;fill-rule:evenodd;stroke:context-stroke;stroke-width:1pt"
         d="M 0,0 5,-5 -12.5,0 5,5 Z"
         id="path85477" />
    </marker>
    <marker
       style="overflow:visible"
       id="marker84883"
       refX="0"
       refY="0"
       orient="auto"
       inkscape:stockid="Arrow1Lend"
       inkscape:isstock="true">
      <path
         transform="matrix(-0.8,0,0,-0.8,-10,0)"
         style="fill:context-stroke;fill-rule:evenodd;stroke:context-stroke;stroke-width:1pt"
         d="M 0,0 5,-5 -12.5,0 5,5 Z"
         id="path84881" />
    </marker>
    <marker
       style="overflow:visible"
       id="marker84873"
       refX="0"
       refY="0"
       orient="auto"
       inkscape:stockid="Arrow1Lend"
       inkscape:isstock="true">
      <path
         transform="matrix(-0.8,0,0,-0.8,-10,0)"
         style="fill:context-stroke;fill-rule:evenodd;stroke:context-stroke;stroke-width:1pt"
         d="M 0,0 5,-5 -12.5,0 5,5 Z"
         id="path84871" />
    </marker>
    <marker
       style="overflow:visible"
       id="Arrow1Lend"
       refX="0"
       refY="0"
       orient="auto"
       inkscape:stockid="Arrow1Lend"
       inkscape:isstock="true">
      <path
         transform="matrix(-0.8,0,0,-0.8,-10,0)"
         style="fill:context-stroke;fill-rule:evenodd;stroke:context-stroke;stroke-width:1pt"
         d="M 0,0 5,-5 -12.5,0 5,5 Z"
         id="path83995" />
    </marker>
    <inkscape:path-effect
       effect="skeletal"
       id="path-effect84551"
       is_visible="true"
       lpeversion="1"
       pattern="M 0,4.9921382 C 0,2.2364779 2.2364779,0 4.9921382,0 c 2.7556604,0 4.9921383,2.2364779 4.9921383,4.9921382 0,2.7556604 -2.2364779,4.9921383 -4.9921383,4.9921383 C 2.2364779,9.9842765 0,7.7477986 0,4.9921382 Z"
       copytype="single_stretched"
       prop_scale="1"
       scale_y_rel="false"
       spacing="0"
       normal_offset="0"
       tang_offset="0"
       prop_units="false"
       vertical_pattern="false"
       hide_knot="false"
       fuse_tolerance="0" />
    <marker
       style="overflow:visible"
       id="marker84395"
       refX="0"
       refY="0"
       orient="auto"
       inkscape:stockid="Arrow1Mend"
       inkscape:isstock="true">
      <path
         transform="matrix(-0.4,0,0,-0.4,-4,0)"
         style="fill:context-stroke;fill-rule:evenodd;stroke:context-stroke;stroke-width:1pt"
         d="M 0,0 5,-5 -12.5,0 5,5 Z"
         id="path84393" />
    </marker>
    <marker
       style="overflow:visible"
       id="marker84385"
       refX="0"
       refY="0"
       orient="auto"
       inkscape:stockid="Arrow1Mend"
       inkscape:isstock="true">
      <path
         transform="matrix(-0.4,0,0,-0.4,-4,0)"
         style="fill:context-stroke;fill-rule:evenodd;stroke:context-stroke;stroke-width:1pt"
         d="M 0,0 5,-5 -12.5,0 5,5 Z"
         id="path84383" />
    </marker>
    <marker
       style="overflow:visible"
       id="Arrow1Mend"
       refX="0"
       refY="0"
       orient="auto"
       inkscape:stockid="Arrow1Mend"
       inkscape:isstock="true">
      <path
         transform="matrix(-0.4,0,0,-0.4,-4,0)"
         style="fill:context-stroke;fill-rule:evenodd;stroke:context-stroke;stroke-width:1pt"
         d="M 0,0 5,-5 -12.5,0 5,5 Z"
         id="path84001" />
    </marker>
    <marker
       style="overflow:visible"
       id="Arrow1Send"
       refX="0"
       refY="0"
       orient="auto"
       inkscape:stockid="Arrow1Send"
       inkscape:isstock="true">
      <path
         transform="matrix(-0.2,0,0,-0.2,-1.2,0)"
         style="fill:context-stroke;fill-rule:evenodd;stroke:context-stroke;stroke-width:1pt"
         d="M 0,0 5,-5 -12.5,0 5,5 Z"
         id="path84007" />
    </marker>
  </defs>
  <g
     inkscape:label="Layer 1"
     inkscape:groupmode="layer"
     id="layer1"
     transform="translate(-11.376434,-18.091921)">
    <text
       xml:space="preserve"
       style="font-size:2.11667px;line-height:120%;font-family:sans-serif;-inkscape-font-specification:'sans-serif, Normal';opacity:1;fill:none;stroke:#000000;stroke-width:0.264999;stroke-linejoin:round;stroke-opacity:1"
       x="34.939827"
       y="44.225063"
       id="text8478"><tspan
         sodipodi:role="line"
         id="tspan8476"
         style="stroke-width:0.265"
         x="34.939827"
         y="44.225063" /></text>
    <g
       id="g3658">
      <g
         id="g3598" />
      <g
         id="g2146">
        <rect
           style="opacity:1;fill:#aed2ee;fill-opacity:1;stroke:#000000;stroke-width:0.264999;stroke-linejoin:round;stroke-opacity:1"
           id="rect83662"
           width="58.538979"
           height="43.778812"
           x="140.33948"
           y="18.224421" />
        <path
           style="fill:none;fill-opacity:1;stroke:#000000;stroke-width:0.264999;stroke-linejoin:round;stroke-opacity:1;marker-end:url(#marker85479)"
           d="m 182.46919,41.966115 v 3.400501"
           id="path86062"
           sodipodi:nodetypes="cc" />
        <g
           id="g83797"
           transform="translate(13.758336,-2.6458333)"
           style="fill:#ffc86c;fill-opacity:1">
          <rect
             style="fill:#ffc86c;fill-opacity:1;stroke:#000000;stroke-width:0.264999;stroke-linejoin:round;stroke-opacity:1"
             id="rect83664-5"
             width="22.29287"
             height="12.453559"
             x="157.56433"
             y="32.15839" />
          <text
             xml:space="preserve"
             style="font-size:3.52778px;line-height:120%;font-family:sans-serif;-inkscape-font-specification:'sans-serif, Normal';opacity:1;fill:#000000;fill-opacity:1;stroke:none;stroke-width:0.264999;stroke-linejoin:round;stroke-opacity:1"
             x="159.54852"
             y="37.583668"
             id="text25120"><tspan
               sodipodi:role="line"
               id="tspan25118"
               style="font-size:3.52778px;fill:#000000;fill-opacity:1;stroke-width:0.265"
               x="159.54852"
               y="37.583668">IQ Sample</tspan><tspan
               sodipodi:role="line"
               style="font-size:3.52778px;fill:#000000;fill-opacity:1;stroke-width:0.265"
               x="159.54852"
               y="41.817005"
               id="tspan25122">File</tspan><tspan
               sodipodi:role="line"
               style="font-size:3.52778px;fill:#000000;fill-opacity:1;stroke-width:0.265"
               x="159.54852"
               y="46.050343"
               id="tspan25124" /></text>
          <text
             xml:space="preserve"
             style="font-size:2.11667px;line-height:120%;font-family:sans-serif;-inkscape-font-specification:'sans-serif, Normal';opacity:1;fill:#000000;stroke-width:0.264999;stroke-linejoin:round"
             x="170.04607"
             y="43.460056"
             id="text6412"><tspan
               sodipodi:role="line"
               id="tspan6410"
               style="font-size:2.11667px;stroke-width:0.265"
               x="170.04607"
               y="43.460056">[Robyns]</tspan></text>
        </g>
        <g
           id="g83803"
           transform="translate(13.758336,-2.6458333)"
           style="fill:#ffc86c;fill-opacity:1">
          <rect
             style="fill:#ffc86c;fill-opacity:1;stroke:#000000;stroke-width:0.264999;stroke-linejoin:round;stroke-opacity:1"
             id="rect83664-5-5"
             width="22.29287"
             height="12.453559"
             x="157.56433"
             y="48.012451" />
          <text
             xml:space="preserve"
             style="font-size:3.52778px;line-height:120%;font-family:sans-serif;-inkscape-font-specification:'sans-serif, Normal';text-align:start;text-anchor:start;opacity:1;fill:#000000;fill-opacity:1;stroke:none;stroke-width:0.264999;stroke-linejoin:round;stroke-opacity:1"
             x="162.44586"
             y="53.064796"
             id="text25956"><tspan
               sodipodi:role="line"
               style="font-size:3.52778px;text-align:start;text-anchor:start;fill:#000000;fill-opacity:1;stroke-width:0.265"
               x="162.44586"
               y="53.064796"
               id="tspan25958">Octave</tspan><tspan
               sodipodi:role="line"
               style="font-size:3.52778px;text-align:start;text-anchor:start;fill:#000000;fill-opacity:1;stroke-width:0.265"
               x="162.44586"
               y="57.298134"
               id="tspan60791">Script</tspan></text>
        </g>
        <text
           xml:space="preserve"
           style="font-size:4.23333px;line-height:120%;font-family:sans-serif;-inkscape-font-specification:'sans-serif, Normal';fill:#000000;fill-opacity:1;stroke:none;stroke-width:0.264999;stroke-linejoin:round;stroke-opacity:1"
           x="141.90134"
           y="23.299366"
           id="text16659"><tspan
             sodipodi:role="line"
             id="tspan16657"
             style="stroke-width:0.265"
             x="141.90134"
             y="23.299366">PC</tspan></text>
      </g>
    </g>
  </g>
</svg>
