%!PS-Adobe-3.0 EPSF-3.0
%%Title: gl2ps_renderer figure
%%Creator: GL2PS 1.4.2, (C) 1999-2020 C. Geuzaine
%%For: Octave
%%CreationDate: Mon Nov 23 22:55:20 2020
%%LanguageLevel: 3
%%DocumentData: Clean7Bit
%%Pages: 1
%%BoundingBox: 0 0 576 432
%%EndComments
%%BeginProlog
/gl2psdict 64 dict def gl2psdict begin
/tryPS3shading false def % set to false to force subdivision
/rThreshold 0.064 def % red component subdivision threshold
/gThreshold 0.034 def % green component subdivision threshold
/bThreshold 0.1 def % blue component subdivision threshold
/BD { bind def } bind def
/C  { setrgbcolor } BD
/G  { 0.082 mul exch 0.6094 mul add exch 0.3086 mul add neg 1.0 add setgray } BD
/W  { setlinewidth } BD
/LC  { setlinecap } BD
/LJ  { setlinejoin } BD
/FC { findfont exch /SH exch def SH scalefont setfont } BD
/SW { dup stringwidth pop } BD
/S  { FC moveto show } BD
/SBC{ FC moveto SW -2 div 0 rmoveto show } BD
/SBR{ FC moveto SW neg 0 rmoveto show } BD
/SCL{ FC moveto 0 SH -2 div rmoveto show } BD
/SCC{ FC moveto SW -2 div SH -2 div rmoveto show } BD
/SCR{ FC moveto SW neg SH -2 div rmoveto show } BD
/STL{ FC moveto 0 SH neg rmoveto show } BD
/STC{ FC moveto SW -2 div SH neg rmoveto show } BD
/STR{ FC moveto SW neg SH neg rmoveto show } BD
/FCT { FC translate 0 0 } BD
/SR  { gsave FCT moveto rotate show grestore } BD
/SRX  { gsave FCT moveto rotate xshow grestore } BD
/SBCR{ gsave FCT moveto rotate SW -2 div 0 rmoveto show grestore } BD
/SBRR{ gsave FCT moveto rotate SW neg 0 rmoveto show grestore } BD
/SCLR{ gsave FCT moveto rotate 0 SH -2 div rmoveto show grestore} BD
/SCCR{ gsave FCT moveto rotate SW -2 div SH -2 div rmoveto show grestore} BD
/SCRR{ gsave FCT moveto rotate SW neg SH -2 div rmoveto show grestore} BD
/STLR{ gsave FCT moveto rotate 0 SH neg rmoveto show grestore } BD
/STCR{ gsave FCT moveto rotate SW -2 div SH neg rmoveto show grestore } BD
/STRR{ gsave FCT moveto rotate SW neg SH neg rmoveto show grestore } BD
/P  { newpath 0.0 360.0 arc closepath fill } BD
/LS { newpath moveto } BD
/L  { lineto } BD
/LE { lineto stroke } BD
/T  { newpath moveto lineto lineto closepath fill } BD
/STshfill {
      /b1 exch def /g1 exch def /r1 exch def /y1 exch def /x1 exch def
      /b2 exch def /g2 exch def /r2 exch def /y2 exch def /x2 exch def
      /b3 exch def /g3 exch def /r3 exch def /y3 exch def /x3 exch def
      gsave << /ShadingType 4 /ColorSpace [/DeviceRGB]
      /DataSource [ 0 x1 y1 r1 g1 b1 0 x2 y2 r2 g2 b2 0 x3 y3 r3 g3 b3 ] >>
      shfill grestore } BD
/Tm { 3 -1 roll 8 -1 roll 13 -1 roll add add 3 div
      3 -1 roll 7 -1 roll 11 -1 roll add add 3 div
      3 -1 roll 6 -1 roll 9 -1 roll add add 3 div C T } BD
/STsplit {
      4 index 15 index add 0.5 mul
      4 index 15 index add 0.5 mul
      4 index 15 index add 0.5 mul
      4 index 15 index add 0.5 mul
      4 index 15 index add 0.5 mul
      5 copy 5 copy 25 15 roll
      9 index 30 index add 0.5 mul
      9 index 30 index add 0.5 mul
      9 index 30 index add 0.5 mul
      9 index 30 index add 0.5 mul
      9 index 30 index add 0.5 mul
      5 copy 5 copy 35 5 roll 25 5 roll 15 5 roll
      4 index 10 index add 0.5 mul
      4 index 10 index add 0.5 mul
      4 index 10 index add 0.5 mul
      4 index 10 index add 0.5 mul
      4 index 10 index add 0.5 mul
      5 copy 5 copy 40 5 roll 25 5 roll 15 5 roll 25 5 roll
      STnoshfill STnoshfill STnoshfill STnoshfill } BD
/STnoshfill {
      2 index 8 index sub abs rThreshold gt
      { STsplit }
      { 1 index 7 index sub abs gThreshold gt
        { STsplit }
        { dup 6 index sub abs bThreshold gt
          { STsplit }
          { 2 index 13 index sub abs rThreshold gt
            { STsplit }
            { 1 index 12 index sub abs gThreshold gt
              { STsplit }
              { dup 11 index sub abs bThreshold gt
                { STsplit }
                { 7 index 13 index sub abs rThreshold gt
                  { STsplit }
                  { 6 index 12 index sub abs gThreshold gt
                    { STsplit }
                    { 5 index 11 index sub abs bThreshold gt
                      { STsplit }
                      { Tm }
                      ifelse }
                    ifelse }
                  ifelse }
                ifelse }
              ifelse }
            ifelse }
          ifelse }
        ifelse }
      ifelse } BD
tryPS3shading
{ /shfill where
  { /ST { STshfill } BD }
  { /ST { STnoshfill } BD }
  ifelse }
{ /ST { STnoshfill } BD }
ifelse
end
%%EndProlog
%%BeginSetup
/DeviceRGB setcolorspace
gl2psdict begin
%%EndSetup
%%Page: 1 1
%%BeginPageSetup
%%EndPageSetup
mark
gsave
1.0 1.0 scale
1 1 1 C
newpath 0 0 moveto 576 0 lineto 576 432 lineto 0 432 lineto
closepath fill
gsave
1.0 1.0 scale
1 1 1 C
newpath 0 0 moveto 576 0 lineto 576 432 lineto 0 432 lineto
closepath fill
newpath 0 0 moveto 576 0 lineto 576 432 lineto 0 432 lineto
closepath clip
1 1 1 C
521.28 399.6 521.28 47.52 74.8799 47.52 T
74.8799 399.6 521.28 399.6 74.8799 47.52 T
0.5 W
0.15 0.15 0.15 C
74.8799 47.52 LS
74.8799 51.9849 LE
149.28 47.52 LS
149.28 51.9849 LE
223.68 47.52 LS
223.68 51.9849 LE
298.08 47.52 LS
298.08 51.9849 LE
372.48 47.52 LS
372.48 51.9849 LE
446.88 47.52 LS
446.88 51.9849 LE
521.28 47.52 LS
521.28 51.9849 LE
gsave
0.14902 0.14902 0.14902 C
(0) [10] 0 71.88 32.0183 10 /Helvetica SRX
grestore

gsave
0.14902 0.14902 0.14902 C
(200) [6 6 10] 0 140.28 32.0183 10 /Helvetica SRX
grestore

gsave
0.14902 0.14902 0.14902 C
(400) [6 6 10] 0 214.68 32.0183 10 /Helvetica SRX
grestore

gsave
0.14902 0.14902 0.14902 C
(600) [6 6 10] 0 289.08 32.0183 10 /Helvetica SRX
grestore

gsave
0.14902 0.14902 0.14902 C
(800) [6 6 10] 0 363.48 32.0183 10 /Helvetica SRX
grestore

gsave
0.14902 0.14902 0.14902 C
(1000) [6 6 6 10] 0 434.88 32.0183 10 /Helvetica SRX
grestore

gsave
0.14902 0.14902 0.14902 C
(1200) [6 6 6 10] 0 509.28 32.0183 10 /Helvetica SRX
grestore

74.8799 47.52 LS
79.3481 47.52 LE
74.8799 135.54 LS
79.3481 135.54 LE
74.8799 223.56 LS
79.3481 223.56 LE
74.8799 311.58 LS
79.3481 311.58 LE
74.8799 399.6 LS
79.3481 399.6 LE
gsave
0.14902 0.14902 0.14902 C
(-0.1) [3 6 3 10] 0 51.8755 43.52 10 /Helvetica SRX
grestore

gsave
0.14902 0.14902 0.14902 C
(-0.05) [3 6 3 6 10] 0 45.8755 131.54 10 /Helvetica SRX
grestore

gsave
0.14902 0.14902 0.14902 C
(0) [10] 0 63.8755 219.56 10 /Helvetica SRX
grestore

gsave
0.14902 0.14902 0.14902 C
(0.05) [6 3 6 10] 0 48.8755 307.58 10 /Helvetica SRX
grestore

gsave
0.14902 0.14902 0.14902 C
(0.1) [6 3 10] 0 54.8755 395.6 10 /Helvetica SRX
grestore

2 LC
[16 0] 0 setdash
74.8799 47.52 LS
521.28 47.52 LE
74.8799 47.52 LS
74.8799 399.6 LE
gsave
0.14902 0.14902 0.14902 C
(Sample) [7 6 9 6 2 10] 0 280.08 18.0183 11 /Helvetica SRX
grestore

gsave
0.14902 0.14902 0.14902 C
(Normalized Instantaneous Frequency) [8 6 4 9 6 2 2 5 6 6 3 3 6 5 3 6 6 3 6 6 6 6 6 5 3 7 4 6 6 6 6 6 6 10] 90 37.8755 134.06 11 /Helvetica SRX
grestore

gsave
0 0 0 C
(Received and ideal symbol samples for n) [8 6 6 6 3 6 6 7 3 6 7 7 3 3 7 6 6 3 3 6 6 10 7 7 3 3 6 6 10 7 3 6 6 3 4 7 4 3 10] 0 154.08 418.6 11 /Helvetica-Bold SRX
(sy) [5 10] 0 370.08 411.6 9 /Helvetica-Bold SRX
( = 96, SF = 7) [3 6 3 6 6 3 3 7 7 3 6 3 10] 0 380.08 418.6 11 /Helvetica-Bold SRX
grestore

0 LC
1 LJ
[] 0 setdash
0 0.447 0.741 C
75.252 221.255 LS
75.624 224.25 L
75.9961 232.635 L
76.3682 238.445 L
76.7402 242.934 L
77.1118 246.701 L
77.4839 251.645 L
77.856 254.371 L
78.228 258.984 L
78.6001 259.953 L
78.9722 262.688 L
79.3438 266.461 L
79.7158 266.835 L
80.0879 267.015 L
80.46 267.042 L
80.832 274.011 L
81.2041 272.592 L
81.5762 270.233 L
81.9482 276.371 L
82.3198 273.132 L
82.6919 275.807 L
83.064 274.08 L
83.436 275.237 L
83.8081 276.364 L
84.1802 275.46 L
84.5518 278.739 L
84.9238 278.687 L
85.2959 278.63 L
85.668 278.862 L
86.04 282.094 L
86.4121 278.831 L
86.7842 280.453 L
87.1562 277.474 L
87.5278 279.997 L
87.8999 280.097 L
88.272 278.64 L
88.644 282.395 L
89.0161 282.195 L
89.3882 281.43 L
89.7598 281.893 L
90.1318 281.116 L
90.5039 280.771 L
90.876 284.038 L
91.248 282.776 L
91.6201 281.79 L
91.9922 281.563 L
92.3638 283.678 L
92.7358 284.354 L
93.1079 284.822 L
93.48 282.195 L
93.8521 282.81 L
94.2241 282.166 L
94.5962 284.62 L
94.9678 287.156 L
95.3398 285.22 L
95.7119 285.701 L
96.084 286.474 L
96.4561 285.133 L
96.8281 286.974 L
97.2002 287.852 L
97.5718 284.111 L
97.9438 285.173 L
98.3159 290.024 L
98.688 286.084 L
99.0601 288.295 L
99.4321 289.39 L
99.8042 287.554 L
100.176 286.733 L
100.548 286.915 L
100.92 285.36 L
101.292 289.065 L
101.664 286.974 L
102.036 288.33 L
102.408 290.355 L
102.78 288.161 L
103.152 290.271 L
103.524 291.025 L
103.896 287.397 L
104.268 291.634 L
104.64 291.999 L
105.012 291.508 L
105.384 292.772 L
105.756 292.134 L
106.128 293.062 L
106.5 292.919 L
106.872 289.578 L
107.244 292.077 L
107.616 293.255 L
107.988 290.04 L
108.36 289.778 L
108.732 293.234 L
109.104 295.105 L
109.476 293.135 L
109.848 292.047 L
110.22 292.85 L
110.592 294.382 L
110.964 293.715 L
111.336 293.386 L
111.708 294.283 L
112.08 293.245 L
112.452 294.187 L
112.824 295.97 L
113.196 298.444 L
113.568 293.994 L
113.94 297.022 L
114.312 296.701 L
114.684 296.761 L
115.056 297.41 L
115.428 295.939 L
115.8 298.481 L
116.172 296.523 L
116.544 293.92 L
116.916 298.621 L
117.288 297.087 L
117.66 299.788 L
118.032 300.285 L
118.404 298.902 L
118.776 300.354 L
119.148 297.306 L
119.52 298.809 L
119.892 297.138 L
120.264 299.268 L
120.636 300.974 L
121.008 297.605 L
121.38 298.15 L
121.752 300.046 L
122.124 303.607 L
122.496 302.543 L
122.868 301.006 L
123.24 299.688 L
123.612 301.43 L
123.984 301.857 L
124.356 302.679 L
124.728 303.33 L
125.1 299.384 L
125.472 299.54 L
125.844 301.234 L
126.216 304.702 L
126.588 302.236 L
126.96 304.417 L
127.332 304.347 L
127.704 304.498 L
128.076 303.821 L
128.448 305.308 L
128.82 303.67 L
129.192 303.9 L
129.564 305.749 L
129.936 305.106 L
130.308 305.238 L
130.68 305.563 L
131.052 305.584 L
131.424 308.065 L
131.796 306.778 L
132.168 308.386 L
132.54 304.968 L
132.912 307.048 L
133.284 306.294 L
133.656 308.158 L
134.028 306.297 L
134.4 307.954 L
134.772 308.774 L
135.144 308.937 L
135.516 308.273 L
135.888 307.333 L
136.26 309.882 L
136.632 305.039 L
137.004 308.061 L
137.376 308.474 L
137.748 309.976 L
138.12 310.103 L
138.492 308.979 L
138.864 308.728 L
139.236 311.78 L
139.608 312.423 L
139.98 311.653 L
140.352 309.601 L
140.724 311.271 L
141.096 310.033 L
141.468 311.3 L
141.84 313.455 L
142.212 312.827 L
142.584 309.705 L
142.956 314.693 L
143.328 312.624 L
143.7 312.235 L
144.072 312.497 L
144.444 313.318 L
144.816 313.905 L
145.188 314.312 L
145.56 313.886 L
145.932 315.61 L
146.304 316.115 L
146.676 316.089 L
147.048 315.049 L
147.42 313.033 L
147.792 315.405 L
148.164 315.817 L
148.536 315.639 L
148.908 315.858 L
149.28 317.729 L
149.652 317.425 L
150.024 316.845 L
150.396 315.301 L
150.768 316.533 L
151.14 317.704 L
151.512 317.76 L
151.884 317.896 L
152.256 318.297 L
152.628 320.942 L
153 316.564 L
153.372 318.529 L
153.744 318.31 L
154.116 317.735 L
154.488 323.162 L
154.86 319.812 L
155.232 318.627 L
155.604 318.225 L
155.976 320.403 L
156.348 321.334 L
156.72 319.802 L
157.092 319.295 L
157.464 318.542 L
157.836 321.148 L
158.208 320.746 L
158.58 321.987 L
158.952 321.532 L
159.324 320.948 L
159.696 324.862 L
160.068 322.553 L
160.44 321.736 L
160.812 324.19 L
161.184 323.062 L
161.556 325.7 L
161.928 320.965 L
162.3 322.677 L
162.672 323.153 L
163.044 326.39 L
163.416 323.893 L
163.788 323.142 L
164.16 324.681 L
164.532 324.576 L
164.904 325.528 L
165.276 325.379 L
165.648 327.149 L
166.02 325.644 L
166.392 325.694 L
166.764 327.04 L
167.136 325.999 L
167.508 324.993 L
167.88 317.34 L
168.252 307.771 L
168.624 294.938 L
168.996 276.699 L
169.368 260.142 L
169.74 244.805 L
170.112 230.373 L
170.484 213.471 L
170.856 203.778 L
171.228 189.908 L
171.6 177.574 L
171.972 173.153 L
172.344 161.541 L
172.716 155.509 L
173.088 147.755 L
173.46 142.964 L
173.832 139.307 L
174.204 134.038 L
174.576 131.528 L
174.948 130.952 L
175.32 126.643 L
175.692 126.698 L
176.064 123.573 L
176.436 121.704 L
176.808 122.339 L
177.18 120.564 L
177.552 119.489 L
177.924 120.374 L
178.296 117.326 L
178.668 115.998 L
179.04 116.629 L
179.412 117.459 L
179.784 118.623 L
180.156 116.943 L
180.528 117.421 L
180.9 116.352 L
181.272 116 L
181.644 116.144 L
182.016 115.671 L
182.388 115.812 L
182.76 117.781 L
183.132 116.643 L
183.504 116.29 L
183.876 119.698 L
184.248 118.002 L
184.62 118.627 L
184.992 116.154 L
185.364 115.604 L
185.736 115.48 L
186.108 117.139 L
186.48 115.496 L
186.852 118.735 L
187.224 117.055 L
187.596 118.84 L
187.968 119.501 L
188.34 118.177 L
188.712 120.544 L
189.084 119.259 L
189.456 119.823 L
189.828 118.812 L
190.2 120.539 L
190.572 121.367 L
190.944 121.88 L
191.316 118.969 L
191.688 118.375 L
192.06 122.139 L
192.432 120.363 L
192.804 122.876 L
193.176 121.674 L
193.548 123.287 L
193.92 120.951 L
194.292 123.003 L
194.664 120.115 L
195.036 122.29 L
195.408 122.853 L
195.78 121.502 L
196.152 124.608 L
196.524 122.494 L
196.896 122.897 L
197.268 124.439 L
197.64 125.661 L
198.012 125.404 L
198.384 122.542 L
198.756 124.945 L
199.128 122.533 L
199.5 125.619 L
199.872 126.622 L
200.244 126.829 L
200.616 123.631 L
200.988 124.99 L
201.36 127.279 L
201.732 124.938 L
202.104 126.824 L
202.476 127.65 L
202.848 127.545 L
203.22 130.204 L
203.592 128.886 L
203.964 127.035 L
204.336 130.312 L
204.708 128.307 L
205.08 130.61 L
205.452 127.091 L
205.824 125.978 L
206.196 128.835 L
206.568 129.678 L
206.94 129.242 L
207.312 128.428 L
207.684 129.302 L
208.056 131.314 L
208.428 129.197 L
208.8 131.933 L
209.172 133.174 L
209.544 130.62 L
209.916 130.293 L
210.288 129.564 L
210.66 132.161 L
211.032 132.308 L
211.404 131.89 L
211.776 130.893 L
212.148 132.715 L
212.52 134.725 L
212.892 131.981 L
213.264 134.206 L
213.636 132.865 L
214.008 134.411 L
214.38 132.227 L
214.752 131.984 L
215.124 133.439 L
215.496 134.263 L
215.868 135.097 L
216.24 136.34 L
216.612 134.582 L
216.984 134.397 L
217.356 134.231 L
217.728 136.275 L
218.1 137.232 L
218.472 137.217 L
218.844 137.782 L
219.216 135.644 L
219.588 135.549 L
219.96 136.928 L
220.332 139.494 L
220.704 138.606 L
221.076 137.648 L
221.448 138.308 L
221.82 135.108 L
222.192 138.994 L
222.564 136.357 L
222.936 137.358 L
223.308 139.319 L
223.68 136.833 L
224.052 140.563 L
224.424 138.902 L
224.796 139.162 L
225.168 141.495 L
225.54 140.862 L
225.912 141.315 L
226.284 143.375 L
226.656 139.968 L
227.028 139.807 L
227.4 140.94 L
227.772 140.938 L
228.144 142.999 L
228.516 141.769 L
228.888 143.836 L
229.26 143.048 L
229.632 142.235 L
230.004 141.965 L
230.376 141.776 L
230.748 141.415 L
231.12 144.967 L
231.492 146.058 L
231.864 145.086 L
232.236 143.832 L
232.608 143.555 L
232.98 145.909 L
233.352 146.093 L
233.724 142.689 L
234.096 144.899 L
234.468 142.974 L
234.84 144.582 L
235.212 147.629 L
235.584 147.685 L
235.956 145.148 L
236.328 144.064 L
236.7 149.09 L
237.072 145.941 L
237.444 146.992 L
237.816 147.705 L
238.188 148.498 L
238.56 149.933 L
238.932 149.756 L
239.304 145.589 L
239.676 148.296 L
240.048 145.814 L
240.42 149.542 L
240.792 147.863 L
241.164 149.114 L
241.536 148.412 L
241.908 148.638 L
242.28 149.842 L
242.652 148.682 L
243.024 149.917 L
243.396 153.258 L
243.768 152.553 L
244.14 151.764 L
244.512 152.653 L
244.884 150.575 L
245.256 151.01 L
245.628 150.595 L
246 152.162 L
246.372 152.1 L
246.744 150.493 L
247.116 153.809 L
247.488 152.752 L
247.86 152.656 L
248.232 152.395 L
248.604 153.012 L
248.976 152.043 L
249.348 154.297 L
249.72 155.589 L
250.092 154.58 L
250.464 156.687 L
250.836 154.605 L
251.208 154.737 L
251.58 157.234 L
251.952 155.444 L
252.324 155.424 L
252.696 154.336 L
253.068 156.082 L
253.44 158.189 L
253.812 155.991 L
254.184 158.266 L
254.556 157.745 L
254.928 156.945 L
255.3 158.414 L
255.672 157.645 L
256.044 159.75 L
256.416 158.739 L
256.788 157.981 L
257.16 158.248 L
257.532 156.194 L
257.904 157.872 L
258.276 156.306 L
258.648 158.46 L
259.02 159.679 L
259.392 159.156 L
259.764 160.495 L
260.136 160.385 L
260.508 161.475 L
260.88 162.01 L
261.252 160.194 L
261.624 161.087 L
261.996 159.929 L
262.368 159.857 L
262.74 163.271 L
263.112 163.202 L
263.484 163.16 L
263.856 162.099 L
264.228 160.02 L
264.6 163.176 L
264.972 160.999 L
265.344 163.357 L
265.716 166.271 L
266.088 162.777 L
266.46 166.354 L
266.832 163.625 L
267.204 163.694 L
267.576 166.044 L
267.948 164.609 L
268.32 166.666 L
268.692 162.288 L
269.064 165.483 L
269.436 164.903 L
269.808 164.771 L
270.18 164.412 L
270.552 166.62 L
270.924 165.081 L
271.296 166.676 L
271.668 166.296 L
272.04 166.104 L
272.412 168.568 L
272.784 167.962 L
273.156 167.157 L
273.528 168.898 L
273.9 167.076 L
274.272 168.853 L
274.644 170.429 L
275.016 168.433 L
275.388 169.595 L
275.76 169.382 L
276.132 169.483 L
276.504 170.274 L
276.876 168.907 L
277.248 169.438 L
277.62 170.905 L
277.992 169.676 L
278.364 173.634 L
278.736 171.062 L
279.108 171.05 L
279.48 169.636 L
279.852 171.027 L
280.224 172.528 L
280.596 172.833 L
280.968 172.587 L
281.34 170.456 L
281.712 171.101 L
282.084 175.535 L
282.456 174.353 L
282.828 176.171 L
283.2 173.397 L
283.572 173.817 L
283.944 174.38 L
284.316 174.538 L
284.688 174.984 L
285.06 175.379 L
285.432 172.765 L
285.804 175.171 L
286.176 176.656 L
286.548 173.765 L
286.92 176.187 L
287.292 175.199 L
287.664 175.389 L
288.036 175.79 L
288.408 175.882 L
288.78 176.47 L
289.152 174.132 L
289.524 177.116 L
289.896 178.099 L
290.268 178.892 L
290.64 177.721 L
291.012 179.886 L
291.384 175.707 L
291.756 178.478 L
292.128 180.817 L
292.5 179.333 L
292.872 180.839 L
293.244 178.137 L
293.616 180.929 L
293.988 176.659 L
294.36 179.972 L
294.732 180.453 L
295.104 178.469 L
295.476 181.16 L
295.848 180.042 L
296.22 181.638 L
296.592 180.457 L
296.964 180.685 L
297.336 182.038 L
297.708 181.935 L
298.08 179.968 L
298.452 184.214 L
298.824 184.677 L
299.196 184.695 L
299.568 181.792 L
299.94 182.795 L
300.312 184.064 L
300.684 184.656 L
301.056 184.737 L
301.428 184.888 L
301.8 181.443 L
302.172 185.628 L
302.544 184.622 L
302.916 183.744 L
303.288 185.807 L
303.66 186.312 L
304.032 187.095 L
304.404 184.462 L
304.776 185.252 L
305.148 185.411 L
305.52 185.324 L
305.892 185.367 L
306.264 184.118 L
306.636 189.508 L
307.008 185.428 L
307.38 186.517 L
307.752 188.998 L
308.124 188.148 L
308.496 187.43 L
308.868 189.926 L
309.24 189.453 L
309.612 189.064 L
309.984 189.122 L
310.356 190.287 L
310.728 188.972 L
311.1 190.723 L
311.472 188.098 L
311.844 190.435 L
312.216 190.39 L
312.588 189.645 L
312.96 191.365 L
313.332 191.535 L
313.704 190.341 L
314.076 189.943 L
314.448 189.432 L
314.82 191.89 L
315.192 190.463 L
315.564 195.543 L
315.936 193.223 L
316.308 194 L
316.68 193 L
317.052 191.628 L
317.424 195.238 L
317.796 193.462 L
318.168 192.358 L
318.54 191.962 L
318.912 194.315 L
319.284 197.546 L
319.656 194.704 L
320.028 195.901 L
320.4 196.702 L
320.772 194.426 L
321.144 195.68 L
321.516 193.292 L
321.888 195.294 L
322.26 194.43 L
322.632 194.888 L
323.004 195.368 L
323.376 198.021 L
323.748 195.962 L
324.12 198.466 L
324.492 198.051 L
324.864 197.74 L
325.236 196.265 L
325.608 197.387 L
325.98 200.043 L
326.352 197.252 L
326.724 197.745 L
327.096 198.062 L
327.468 198.322 L
327.84 201.543 L
328.212 201.105 L
328.584 200.123 L
328.956 201.902 L
329.328 200.379 L
329.7 199.232 L
330.072 198.479 L
330.444 202.555 L
330.816 199.087 L
331.188 200.833 L
331.56 199.88 L
331.932 201.413 L
332.304 202.657 L
332.676 202.41 L
333.048 207.296 L
333.42 203.481 L
333.792 202.834 L
334.164 201.977 L
334.536 204.083 L
334.908 205.342 L
335.28 203.822 L
335.652 202.668 L
336.024 204.354 L
336.396 203.492 L
336.768 205.516 L
337.14 203.482 L
337.512 204.454 L
337.884 203.58 L
338.256 204.373 L
338.628 206.301 L
339 206.332 L
339.372 206.266 L
339.744 206.286 L
340.116 206.123 L
340.488 205.986 L
340.86 207.812 L
341.232 205.395 L
341.604 207.181 L
341.976 206.835 L
342.348 206.686 L
342.72 208.076 L
343.092 205.06 L
343.464 209.285 L
343.836 208.806 L
344.208 209.372 L
344.58 209.096 L
344.952 206.811 L
345.324 208.105 L
345.696 214.196 L
346.068 210.506 L
346.44 210.527 L
346.812 210.538 L
347.184 210.55 L
347.556 210.571 L
347.928 210.208 L
348.3 210.77 L
348.672 210.829 L
349.044 210.334 L
349.416 212.459 L
349.788 211.999 L
350.16 212.702 L
350.532 211.358 L
350.904 214.008 L
351.276 214.531 L
351.648 211.446 L
352.02 211.723 L
352.392 214.282 L
352.764 214.75 L
353.136 212.5 L
353.508 212.487 L
353.88 213.091 L
354.252 213.014 L
354.624 215.25 L
354.996 215.153 L
355.368 216.589 L
355.74 215.868 L
356.112 215.457 L
356.484 215.125 L
356.856 216.833 L
357.228 216.071 L
357.6 217.543 L
357.972 216.627 L
358.344 216.14 L
358.716 219.414 L
359.088 218.23 L
359.46 216.913 L
359.832 218.174 L
360.204 219.12 L
360.576 218.15 L
360.948 219.239 L
361.32 219.918 L
361.692 218.104 L
362.064 215.155 L
362.436 220.768 L
362.808 219.532 L
363.18 217.757 L
363.552 218.807 L
363.924 219.732 L
364.296 220.288 L
364.668 220.706 L
365.04 222.501 L
365.412 222.365 L
365.784 220.781 L
366.156 218.595 L
366.528 223.397 L
366.9 223.174 L
367.272 221.387 L
367.644 223.012 L
368.016 223.647 L
368.388 222.326 L
368.76 222.234 L
369.132 223.063 L
369.504 224.319 L
369.876 225.506 L
370.248 222.979 L
370.62 222.723 L
370.992 222.532 L
371.364 226.391 L
371.736 225.282 L
372.108 226.7 L
372.48 225.514 L
372.852 224.761 L
373.224 225.88 L
373.596 227.056 L
373.968 225.781 L
374.34 224.825 L
374.712 224.108 L
375.084 227.57 L
375.456 226.167 L
375.828 227.322 L
376.2 227.907 L
376.572 226.419 L
376.944 229.774 L
377.316 227.819 L
377.688 228.117 L
378.06 228.955 L
378.432 228.814 L
378.804 227.237 L
379.176 228.359 L
379.548 228.209 L
379.92 230.426 L
380.292 229.602 L
380.664 228.912 L
381.036 229.773 L
381.408 230.502 L
381.78 229.477 L
382.152 230.266 L
382.524 230.923 L
382.896 231.475 L
383.268 231.94 L
383.64 232.333 L
384.012 230.142 L
384.384 233.733 L
384.756 230.926 L
385.128 231.527 L
385.5 232.054 L
385.872 232.299 L
386.244 232.54 L
386.616 232.697 L
386.988 236.152 L
387.36 235.385 L
387.732 235.787 L
388.104 235.076 L
388.476 235.622 L
388.848 234.866 L
389.22 231.639 L
389.592 233.186 L
389.964 232.907 L
390.336 234.906 L
390.708 235.569 L
391.08 238.181 L
391.452 236.173 L
391.824 234.666 L
392.196 237.84 L
392.568 235.639 L
392.94 238.613 L
393.312 238.379 L
393.684 234.273 L
394.056 240.383 L
394.428 235.774 L
394.8 235.065 L
395.172 240.448 L
395.544 239.711 L
395.916 237.764 L
396.288 239.791 L
396.66 238.179 L
397.032 240.221 L
397.404 240.954 L
397.776 239.562 L
398.148 241.57 L
398.52 241.052 L
398.892 239.938 L
399.264 241.736 L
399.636 240.685 L
400.008 242.391 L
400.38 241.251 L
400.752 240.424 L
401.124 241.963 L
401.496 239.237 L
401.868 243.144 L
402.24 243.133 L
402.612 242.948 L
402.984 244.201 L
403.356 241.381 L
403.728 242.185 L
404.1 243.289 L
404.472 240.805 L
404.844 241.828 L
405.216 245.41 L
405.588 245.104 L
405.96 245.653 L
406.332 246.105 L
406.704 242.685 L
407.076 241.341 L
407.448 244.55 L
407.82 247.555 L
408.192 247.248 L
408.564 246.869 L
408.936 244.721 L
409.308 246.39 L
409.68 248.146 L
410.052 245.288 L
410.424 247.71 L
410.796 247.46 L
411.168 246.925 L
411.54 249.127 L
411.912 248.145 L
412.284 247.791 L
412.656 246.876 L
413.028 250.863 L
413.4 250.178 L
413.772 245.554 L
414.144 249.883 L
414.516 248.972 L
414.888 250.515 L
415.26 247.361 L
415.632 251.198 L
416.004 249.17 L
416.376 248.743 L
416.748 250.977 L
417.12 249.359 L
417.492 251.041 L
417.864 252.841 L
418.236 250.737 L
418.608 253.736 L
418.98 252.419 L
419.352 253.726 L
419.724 253.905 L
420.096 254.094 L
420.468 252.455 L
420.84 252.936 L
421.212 251.576 L
421.584 253.207 L
421.956 254.317 L
422.328 251.855 L
422.7 255.743 L
423.072 252.881 L
423.444 254.036 L
423.816 255.08 L
424.188 254.543 L
424.56 255.091 L
424.932 254.772 L
425.304 259.155 L
425.676 255.408 L
426.048 255.958 L
426.42 256.562 L
426.792 253.708 L
427.164 254.584 L
427.536 255.224 L
427.908 258.149 L
428.28 257.986 L
428.652 257.812 L
429.024 258.214 L
429.396 259.867 L
429.768 256.367 L
430.14 260.637 L
430.512 258.776 L
430.884 258.564 L
431.256 257.847 L
431.628 257.878 L
432 260.349 L
432.372 259.769 L
432.744 261.132 L
433.116 261.479 L
433.488 259.514 L
433.86 262.42 L
434.232 258.199 L
434.604 261.771 L
434.976 261.881 L
435.348 262.941 L
435.72 261.624 L
436.092 260.375 L
436.464 262.541 L
436.836 261.544 L
437.208 262.101 L
437.58 260.987 L
437.952 265.612 L
438.324 263.006 L
438.696 263.278 L
439.068 265.94 L
439.44 263.441 L
439.812 261.893 L
440.184 263.31 L
440.556 264.635 L
440.928 265.406 L
441.3 266.203 L
441.672 265.371 L
442.044 264.878 L
442.416 264.544 L
442.788 266.694 L
443.16 267.246 L
443.532 267.333 L
443.904 267.859 L
444.276 264.819 L
444.648 266.935 L
445.02 266.268 L
445.392 265.477 L
445.764 268.901 L
446.136 267.427 L
446.508 267.806 L
446.88 268.176 L
447.252 265.144 L
447.624 268.495 L
447.996 269.556 L
448.368 268.051 L
448.74 269.186 L
449.112 269.845 L
449.484 270.004 L
449.856 269.843 L
450.228 270.014 L
450.6 269.802 L
450.972 269.681 L
451.344 270.807 L
451.716 270.504 L
452.088 270.955 L
452.46 268.809 L
452.832 271.46 L
453.204 274.504 L
453.576 269.866 L
453.948 266.847 L
454.32 261.386 L
454.692 257.164 L
455.064 248.765 L
455.436 247.794 L
455.808 244.124 LE
0.85 0.325 0.098 C
75.252 278.734 LS
75.624 278.949 L
75.9961 279.164 L
76.3682 279.379 L
76.7402 279.594 L
77.1118 279.81 L
77.4839 280.024 L
77.856 280.24 L
78.228 280.455 L
78.6001 280.67 L
78.9722 280.885 L
79.3438 281.1 L
79.7158 281.315 L
80.0879 281.53 L
80.46 281.745 L
80.832 281.96 L
81.2041 282.175 L
81.5762 282.391 L
81.9482 282.605 L
82.3198 282.821 L
82.6919 283.036 L
83.064 283.251 L
83.436 283.466 L
83.8081 283.681 L
84.1802 283.896 L
84.5518 284.111 L
84.9238 284.327 L
85.2959 284.542 L
85.668 284.757 L
86.04 284.972 L
86.4121 285.187 L
86.7842 285.402 L
87.1562 285.617 L
87.5278 285.832 L
87.8999 286.047 L
88.272 286.262 L
88.644 286.478 L
89.0161 286.692 L
89.3882 286.908 L
89.7598 287.123 L
90.1318 287.338 L
90.5039 287.553 L
90.876 287.768 L
91.248 287.983 L
91.6201 288.198 L
91.9922 288.414 L
92.3638 288.628 L
92.7358 288.844 L
93.1079 289.059 L
93.48 289.274 L
93.8521 289.489 L
94.2241 289.704 L
94.5962 289.919 L
94.9678 290.134 L
95.3398 290.349 L
95.7119 290.564 L
96.084 290.78 L
96.4561 290.995 L
96.8281 291.21 L
97.2002 291.425 L
97.5718 291.64 L
97.9438 291.855 L
98.3159 292.07 L
98.688 292.285 L
99.0601 292.5 L
99.4321 292.715 L
99.8042 292.931 L
100.176 293.146 L
100.548 293.361 L
100.92 293.576 L
101.292 293.791 L
101.664 294.006 L
102.036 294.221 L
102.408 294.437 L
102.78 294.651 L
103.152 294.867 L
103.524 295.082 L
103.896 295.297 L
104.268 295.512 L
104.64 295.727 L
105.012 295.942 L
105.384 296.157 L
105.756 296.372 L
106.128 296.587 L
106.5 296.802 L
106.872 297.018 L
107.244 297.232 L
107.616 297.448 L
107.988 297.663 L
108.36 297.878 L
108.732 298.093 L
109.104 298.308 L
109.476 298.523 L
109.848 298.738 L
110.22 298.954 L
110.592 299.168 L
110.964 299.384 L
111.336 299.599 L
111.708 299.814 L
112.08 300.029 L
112.452 300.244 L
112.824 300.459 L
113.196 300.674 L
113.568 300.889 L
113.94 301.104 L
114.312 301.32 L
114.684 301.535 L
115.056 301.75 L
115.428 301.965 L
115.8 302.18 L
116.172 302.395 L
116.544 302.61 L
116.916 302.825 L
117.288 303.041 L
117.66 303.255 L
118.032 303.471 L
118.404 303.686 L
118.776 303.901 L
119.148 304.116 L
119.52 304.331 L
119.892 304.546 L
120.264 304.761 L
120.636 304.977 L
121.008 305.191 L
121.38 305.407 L
121.752 305.622 L
122.124 305.837 L
122.496 306.052 L
122.868 306.267 L
123.24 306.482 L
123.612 306.697 L
123.984 306.912 L
124.356 307.127 L
124.728 307.342 L
125.1 307.558 L
125.472 307.772 L
125.844 307.988 L
126.216 308.203 L
126.588 308.418 L
126.96 308.633 L
127.332 308.848 L
127.704 309.063 L
128.076 309.278 L
128.448 309.494 L
128.82 309.708 L
129.192 309.924 L
129.564 310.139 L
129.936 310.354 L
130.308 310.569 L
130.68 310.784 L
131.052 310.999 L
131.424 311.214 L
131.796 311.429 L
132.168 311.645 L
132.54 311.859 L
132.912 312.075 L
133.284 312.29 L
133.656 312.505 L
134.028 312.72 L
134.4 312.935 L
134.772 313.15 L
135.144 313.365 L
135.516 313.581 L
135.888 313.795 L
136.26 314.011 L
136.632 314.226 L
137.004 314.441 L
137.376 314.656 L
137.748 314.871 L
138.12 315.086 L
138.492 315.301 L
138.864 315.517 L
139.236 315.731 L
139.608 315.947 L
139.98 316.162 L
140.352 316.377 L
140.724 316.592 L
141.096 316.807 L
141.468 317.022 L
141.84 317.237 L
142.212 317.452 L
142.584 317.667 L
142.956 317.882 L
143.328 318.098 L
143.7 318.312 L
144.072 318.528 L
144.444 318.743 L
144.816 318.958 L
145.188 319.173 L
145.56 319.388 L
145.932 319.604 L
146.304 319.818 L
146.676 320.034 L
147.048 320.249 L
147.42 320.464 L
147.792 320.679 L
148.164 320.894 L
148.536 321.109 L
148.908 321.324 L
149.28 321.539 L
149.652 321.754 L
150.024 321.969 L
150.396 322.185 L
150.768 322.399 L
151.14 322.615 L
151.512 322.83 L
151.884 323.045 L
152.256 323.26 L
152.628 323.475 L
153 323.69 L
153.372 323.905 L
153.744 324.121 L
154.116 324.335 L
154.488 324.551 L
154.86 324.766 L
155.232 324.981 L
155.604 325.196 L
155.976 325.411 L
156.348 325.626 L
156.72 325.841 L
157.092 326.057 L
157.464 326.271 L
157.836 326.487 L
158.208 326.702 L
158.58 326.917 L
158.952 327.132 L
159.324 327.347 L
159.696 327.562 L
160.068 327.777 L
160.44 327.992 L
160.812 328.208 L
161.184 328.422 L
161.556 328.638 L
161.928 328.853 L
162.3 329.068 L
162.672 329.283 L
163.044 329.498 L
163.416 329.713 L
163.788 329.928 L
164.16 330.144 L
164.532 330.358 L
164.904 330.574 L
165.276 330.789 L
165.648 331.004 L
166.02 331.219 L
166.392 331.434 L
166.764 331.649 L
167.136 331.864 L
167.508 332.079 L
167.88 332.294 L
168.252 332.509 L
168.624 332.725 L
168.996 332.939 L
169.368 333.155 L
169.74 333.37 L
170.112 333.585 L
170.484 113.535 L
170.856 113.75 L
171.228 113.965 L
171.6 114.18 L
171.972 114.396 L
172.344 114.61 L
172.716 114.826 L
173.088 115.041 L
173.46 115.256 L
173.832 115.471 L
174.204 115.686 L
174.576 115.901 L
174.948 116.116 L
175.32 116.332 L
175.692 116.546 L
176.064 116.762 L
176.436 116.977 L
176.808 117.192 L
177.18 117.407 L
177.552 117.622 L
177.924 117.837 L
178.296 118.052 L
178.668 118.267 L
179.04 118.482 L
179.412 118.697 L
179.784 118.913 L
180.156 119.127 L
180.528 119.343 L
180.9 119.558 L
181.272 119.773 L
181.644 119.988 L
182.016 120.203 L
182.388 120.418 L
182.76 120.633 L
183.132 120.849 L
183.504 121.063 L
183.876 121.279 L
184.248 121.494 L
184.62 121.709 L
184.992 121.924 L
185.364 122.139 L
185.736 122.354 L
186.108 122.569 L
186.48 122.784 L
186.852 123 L
187.224 123.215 L
187.596 123.43 L
187.968 123.645 L
188.34 123.86 L
188.712 124.075 L
189.084 124.29 L
189.456 124.505 L
189.828 124.72 L
190.2 124.936 L
190.572 125.15 L
190.944 125.366 L
191.316 125.581 L
191.688 125.796 L
192.06 126.011 L
192.432 126.226 L
192.804 126.441 L
193.176 126.656 L
193.548 126.872 L
193.92 127.086 L
194.292 127.302 L
194.664 127.517 L
195.036 127.732 L
195.408 127.947 L
195.78 128.162 L
196.152 128.377 L
196.524 128.592 L
196.896 128.807 L
197.268 129.022 L
197.64 129.237 L
198.012 129.453 L
198.384 129.667 L
198.756 129.883 L
199.128 130.098 L
199.5 130.313 L
199.872 130.528 L
200.244 130.743 L
200.616 130.958 L
200.988 131.173 L
201.36 131.389 L
201.732 131.604 L
202.104 131.819 L
202.476 132.034 L
202.848 132.249 L
203.22 132.464 L
203.592 132.679 L
203.964 132.894 L
204.336 133.109 L
204.708 133.324 L
205.08 133.54 L
205.452 133.755 L
205.824 133.97 L
206.196 134.185 L
206.568 134.4 L
206.94 134.615 L
207.312 134.83 L
207.684 135.045 L
208.056 135.26 L
208.428 135.476 L
208.8 135.69 L
209.172 135.906 L
209.544 136.121 L
209.916 136.336 L
210.288 136.551 L
210.66 136.766 L
211.032 136.981 L
211.404 137.196 L
211.776 137.412 L
212.148 137.626 L
212.52 137.842 L
212.892 138.057 L
213.264 138.272 L
213.636 138.487 L
214.008 138.702 L
214.38 138.917 L
214.752 139.132 L
215.124 139.347 L
215.496 139.562 L
215.868 139.777 L
216.24 139.993 L
216.612 140.208 L
216.984 140.423 L
217.356 140.638 L
217.728 140.853 L
218.1 141.068 L
218.472 141.283 L
218.844 141.499 L
219.216 141.713 L
219.588 141.929 L
219.96 142.144 L
220.332 142.359 L
220.704 142.574 L
221.076 142.789 L
221.448 143.004 L
221.82 143.219 L
222.192 143.434 L
222.564 143.649 L
222.936 143.864 L
223.308 144.08 L
223.68 144.294 L
224.052 144.51 L
224.424 144.725 L
224.796 144.94 L
225.168 145.155 L
225.54 145.37 L
225.912 145.585 L
226.284 145.8 L
226.656 146.016 L
227.028 146.23 L
227.4 146.446 L
227.772 146.661 L
228.144 146.876 L
228.516 147.091 L
228.888 147.306 L
229.26 147.521 L
229.632 147.736 L
230.004 147.951 L
230.376 148.167 L
230.748 148.382 L
231.12 148.597 L
231.492 148.812 L
231.864 149.027 L
232.236 149.242 L
232.608 149.457 L
232.98 149.672 L
233.352 149.887 L
233.724 150.103 L
234.096 150.317 L
234.468 150.533 L
234.84 150.748 L
235.212 150.963 L
235.584 151.178 L
235.956 151.393 L
236.328 151.608 L
236.7 151.823 L
237.072 152.039 L
237.444 152.253 L
237.816 152.469 L
238.188 152.684 L
238.56 152.899 L
238.932 153.114 L
239.304 153.329 L
239.676 153.544 L
240.048 153.759 L
240.42 153.974 L
240.792 154.189 L
241.164 154.404 L
241.536 154.62 L
241.908 154.834 L
242.28 155.05 L
242.652 155.265 L
243.024 155.48 L
243.396 155.695 L
243.768 155.91 L
244.14 156.125 L
244.512 156.34 L
244.884 156.556 L
245.256 156.771 L
245.628 156.986 L
246 157.201 L
246.372 157.416 L
246.744 157.631 L
247.116 157.846 L
247.488 158.061 L
247.86 158.276 L
248.232 158.491 L
248.604 158.707 L
248.976 158.922 L
249.348 159.137 L
249.72 159.352 L
250.092 159.567 L
250.464 159.782 L
250.836 159.997 L
251.208 160.212 L
251.58 160.427 L
251.952 160.643 L
252.324 160.857 L
252.696 161.073 L
253.068 161.288 L
253.44 161.503 L
253.812 161.718 L
254.184 161.933 L
254.556 162.148 L
254.928 162.363 L
255.3 162.579 L
255.672 162.793 L
256.044 163.009 L
256.416 163.224 L
256.788 163.439 L
257.16 163.654 L
257.532 163.869 L
257.904 164.084 L
258.276 164.299 L
258.648 164.514 L
259.02 164.729 L
259.392 164.944 L
259.764 165.16 L
260.136 165.375 L
260.508 165.59 L
260.88 165.805 L
261.252 166.02 L
261.624 166.235 L
261.996 166.45 L
262.368 166.666 L
262.74 166.88 L
263.112 167.096 L
263.484 167.311 L
263.856 167.526 L
264.228 167.741 L
264.6 167.956 L
264.972 168.171 L
265.344 168.386 L
265.716 168.601 L
266.088 168.816 L
266.46 169.031 L
266.832 169.247 L
267.204 169.462 L
267.576 169.677 L
267.948 169.892 L
268.32 170.107 L
268.692 170.322 L
269.064 170.537 L
269.436 170.752 L
269.808 170.967 L
270.18 171.183 L
270.552 171.397 L
270.924 171.613 L
271.296 171.828 L
271.668 172.043 L
272.04 172.258 L
272.412 172.473 L
272.784 172.688 L
273.156 172.903 L
273.528 173.119 L
273.9 173.333 L
274.272 173.549 L
274.644 173.764 L
275.016 173.979 L
275.388 174.194 L
275.76 174.409 L
276.132 174.624 L
276.504 174.839 L
276.876 175.054 L
277.248 175.27 L
277.62 175.484 L
277.992 175.7 L
278.364 175.915 L
278.736 176.13 L
279.108 176.345 L
279.48 176.56 L
279.852 176.775 L
280.224 176.99 L
280.596 177.206 L
280.968 177.42 L
281.34 177.636 L
281.712 177.851 L
282.084 178.066 L
282.456 178.281 L
282.828 178.496 L
283.2 178.711 L
283.572 178.926 L
283.944 179.141 L
284.316 179.356 L
284.688 179.571 L
285.06 179.787 L
285.432 180.002 L
285.804 180.217 L
286.176 180.432 L
286.548 180.647 L
286.92 180.862 L
287.292 181.077 L
287.664 181.292 L
288.036 181.507 L
288.408 181.723 L
288.78 181.938 L
289.152 182.153 L
289.524 182.368 L
289.896 182.583 L
290.268 182.798 L
290.64 183.013 L
291.012 183.228 L
291.384 183.443 L
291.756 183.659 L
292.128 183.874 L
292.5 184.089 L
292.872 184.304 L
293.244 184.519 L
293.616 184.734 L
293.988 184.949 L
294.36 185.164 L
294.732 185.379 L
295.104 185.594 L
295.476 185.81 L
295.848 186.024 L
296.22 186.24 L
296.592 186.455 L
296.964 186.67 L
297.336 186.885 L
297.708 187.1 L
298.08 187.315 L
298.452 187.53 L
298.824 187.746 L
299.196 187.96 L
299.568 188.176 L
299.94 188.391 L
300.312 188.606 L
300.684 188.821 L
301.056 189.036 L
301.428 189.251 L
301.8 189.466 L
302.172 189.681 L
302.544 189.896 L
302.916 190.111 L
303.288 190.327 L
303.66 190.542 L
304.032 190.757 L
304.404 190.972 L
304.776 191.187 L
305.148 191.402 L
305.52 191.617 L
305.892 191.833 L
306.264 192.047 L
306.636 192.263 L
307.008 192.478 L
307.38 192.693 L
307.752 192.908 L
308.124 193.123 L
308.496 193.338 L
308.868 193.553 L
309.24 193.768 L
309.612 193.983 L
309.984 194.198 L
310.356 194.414 L
310.728 194.629 L
311.1 194.844 L
311.472 195.059 L
311.844 195.274 L
312.216 195.489 L
312.588 195.704 L
312.96 195.919 L
313.332 196.134 L
313.704 196.35 L
314.076 196.564 L
314.448 196.78 L
314.82 196.995 L
315.192 197.21 L
315.564 197.425 L
315.936 197.64 L
316.308 197.855 L
316.68 198.07 L
317.052 198.286 L
317.424 198.5 L
317.796 198.716 L
318.168 198.931 L
318.54 199.146 L
318.912 199.361 L
319.284 199.576 L
319.656 199.791 L
320.028 200.006 L
320.4 200.221 L
320.772 200.437 L
321.144 200.651 L
321.516 200.867 L
321.888 201.082 L
322.26 201.297 L
322.632 201.512 L
323.004 201.727 L
323.376 201.942 L
323.748 202.157 L
324.12 202.373 L
324.492 202.587 L
324.864 202.803 L
325.236 203.018 L
325.608 203.233 L
325.98 203.448 L
326.352 203.663 L
326.724 203.878 L
327.096 204.093 L
327.468 204.308 L
327.84 204.523 L
328.212 204.738 L
328.584 204.954 L
328.956 205.169 L
329.328 205.384 L
329.7 205.599 L
330.072 205.814 L
330.444 206.029 L
330.816 206.244 L
331.188 206.459 L
331.56 206.674 L
331.932 206.89 L
332.304 207.104 L
332.676 207.32 L
333.048 207.535 L
333.42 207.75 L
333.792 207.965 L
334.164 208.18 L
334.536 208.395 L
334.908 208.61 L
335.28 208.826 L
335.652 209.041 L
336.024 209.256 L
336.396 209.471 L
336.768 209.686 L
337.14 209.901 L
337.512 210.116 L
337.884 210.331 L
338.256 210.546 L
338.628 210.761 L
339 210.977 L
339.372 211.191 L
339.744 211.407 L
340.116 211.622 L
340.488 211.837 L
340.86 212.052 L
341.232 212.267 L
341.604 212.482 L
341.976 212.697 L
342.348 212.913 L
342.72 213.127 L
343.092 213.343 L
343.464 213.558 L
343.836 213.773 L
344.208 213.988 L
344.58 214.203 L
344.952 214.418 L
345.324 214.633 L
345.696 214.848 L
346.068 215.063 L
346.44 215.278 L
346.812 215.494 L
347.184 215.709 L
347.556 215.924 L
347.928 216.139 L
348.3 216.354 L
348.672 216.569 L
349.044 216.784 L
349.416 217 L
349.788 217.214 L
350.16 217.43 L
350.532 217.645 L
350.904 217.86 L
351.276 218.075 L
351.648 218.29 L
352.02 218.505 L
352.392 218.72 L
352.764 218.935 L
353.136 219.15 L
353.508 219.366 L
353.88 219.581 L
354.252 219.796 L
354.624 220.011 L
354.996 220.226 L
355.368 220.441 L
355.74 220.656 L
356.112 220.871 L
356.484 221.086 L
356.856 221.301 L
357.228 221.517 L
357.6 221.731 L
357.972 221.947 L
358.344 222.162 L
358.716 222.377 L
359.088 222.592 L
359.46 222.807 L
359.832 223.022 L
360.204 223.237 L
360.576 223.453 L
360.948 223.667 L
361.32 223.883 L
361.692 224.098 L
362.064 224.313 L
362.436 224.528 L
362.808 224.743 L
363.18 224.958 L
363.552 225.173 L
363.924 225.388 L
364.296 225.604 L
364.668 225.818 L
365.04 226.034 L
365.412 226.249 L
365.784 226.464 L
366.156 226.679 L
366.528 226.894 L
366.9 227.109 L
367.272 227.324 L
367.644 227.54 L
368.016 227.754 L
368.388 227.97 L
368.76 228.185 L
369.132 228.4 L
369.504 228.615 L
369.876 228.83 L
370.248 229.045 L
370.62 229.26 L
370.992 229.475 L
371.364 229.69 L
371.736 229.906 L
372.108 230.121 L
372.48 230.336 L
372.852 230.551 L
373.224 230.766 L
373.596 230.981 L
373.968 231.196 L
374.34 231.411 L
374.712 231.626 L
375.084 231.841 L
375.456 232.057 L
375.828 232.271 L
376.2 232.487 L
376.572 232.702 L
376.944 232.917 L
377.316 233.132 L
377.688 233.347 L
378.06 233.562 L
378.432 233.777 L
378.804 233.993 L
379.176 234.208 L
379.548 234.423 L
379.92 234.638 L
380.292 234.853 L
380.664 235.068 L
381.036 235.283 L
381.408 235.498 L
381.78 235.713 L
382.152 235.928 L
382.524 236.144 L
382.896 236.358 L
383.268 236.574 L
383.64 236.789 L
384.012 237.004 L
384.384 237.219 L
384.756 237.434 L
385.128 237.649 L
385.5 237.864 L
385.872 238.08 L
386.244 238.294 L
386.616 238.51 L
386.988 238.725 L
387.36 238.94 L
387.732 239.155 L
388.104 239.37 L
388.476 239.585 L
388.848 239.8 L
389.22 240.015 L
389.592 240.23 L
389.964 240.445 L
390.336 240.661 L
390.708 240.876 L
391.08 241.091 L
391.452 241.306 L
391.824 241.521 L
392.196 241.736 L
392.568 241.951 L
392.94 242.167 L
393.312 242.381 L
393.684 242.597 L
394.056 242.812 L
394.428 243.027 L
394.8 243.242 L
395.172 243.457 L
395.544 243.672 L
395.916 243.887 L
396.288 244.103 L
396.66 244.317 L
397.032 244.533 L
397.404 244.748 L
397.776 244.963 L
398.148 245.178 L
398.52 245.393 L
398.892 245.608 L
399.264 245.823 L
399.636 246.038 L
400.008 246.253 L
400.38 246.468 L
400.752 246.684 L
401.124 246.898 L
401.496 247.114 L
401.868 247.329 L
402.24 247.544 L
402.612 247.759 L
402.984 247.974 L
403.356 248.189 L
403.728 248.404 L
404.1 248.62 L
404.472 248.834 L
404.844 249.05 L
405.216 249.265 L
405.588 249.48 L
405.96 249.695 L
406.332 249.91 L
406.704 250.125 L
407.076 250.34 L
407.448 250.555 L
407.82 250.771 L
408.192 250.985 L
408.564 251.201 L
408.936 251.416 L
409.308 251.631 L
409.68 251.846 L
410.052 252.061 L
410.424 252.276 L
410.796 252.491 L
411.168 252.707 L
411.54 252.921 L
411.912 253.137 L
412.284 253.352 L
412.656 253.567 L
413.028 253.782 L
413.4 253.997 L
413.772 254.212 L
414.144 254.427 L
414.516 254.642 L
414.888 254.857 L
415.26 255.073 L
415.632 255.288 L
416.004 255.503 L
416.376 255.718 L
416.748 255.933 L
417.12 256.148 L
417.492 256.363 L
417.864 256.578 L
418.236 256.793 L
418.608 257.008 L
418.98 257.224 L
419.352 257.438 L
419.724 257.654 L
420.096 257.869 L
420.468 258.084 L
420.84 258.299 L
421.212 258.514 L
421.584 258.729 L
421.956 258.944 L
422.328 259.16 L
422.7 259.375 L
423.072 259.59 L
423.444 259.805 L
423.816 260.02 L
424.188 260.235 L
424.56 260.45 L
424.932 260.665 L
425.304 260.88 L
425.676 261.095 L
426.048 261.311 L
426.42 261.525 L
426.792 261.741 L
427.164 261.956 L
427.536 262.171 L
427.908 262.386 L
428.28 262.601 L
428.652 262.816 L
429.024 263.031 L
429.396 263.247 L
429.768 263.461 L
430.14 263.677 L
430.512 263.892 L
430.884 264.107 L
431.256 264.322 L
431.628 264.537 L
432 264.752 L
432.372 264.967 L
432.744 265.182 L
433.116 265.397 L
433.488 265.613 L
433.86 265.828 L
434.232 266.043 L
434.604 266.258 L
434.976 266.473 L
435.348 266.688 L
435.72 266.903 L
436.092 267.118 L
436.464 267.333 L
436.836 267.548 L
437.208 267.764 L
437.58 267.979 L
437.952 268.194 L
438.324 268.409 L
438.696 268.624 L
439.068 268.839 L
439.44 269.054 L
439.812 269.27 L
440.184 269.484 L
440.556 269.7 L
440.928 269.915 L
441.3 270.13 L
441.672 270.345 L
442.044 270.56 L
442.416 270.775 L
442.788 270.99 L
443.16 271.205 L
443.532 271.42 L
443.904 271.635 L
444.276 271.851 L
444.648 272.065 L
445.02 272.281 L
445.392 272.496 L
445.764 272.711 L
446.136 272.926 L
446.508 273.141 L
446.88 273.356 L
447.252 273.571 L
447.624 273.787 L
447.996 274.001 L
448.368 274.217 L
448.74 274.432 L
449.112 274.647 L
449.484 274.862 L
449.856 275.077 L
450.228 275.292 L
450.6 275.507 L
450.972 275.722 L
451.344 275.938 L
451.716 276.152 L
452.088 276.368 L
452.46 276.583 L
452.832 276.798 L
453.204 277.013 L
453.576 277.228 L
453.948 277.443 L
454.32 277.658 L
454.692 277.874 L
455.064 278.088 L
455.436 278.304 L
455.808 278.519 LE
grestore
gsave
1.0 1.0 scale
newpath 0 0 moveto 576 0 lineto 576 432 lineto 0 432 lineto
closepath clip
1 1 1 C
515.108 393.428 515.108 366.685 391.164 366.685 T
391.164 393.428 515.108 393.428 391.164 366.685 T
0.5 W
2 LC
[16 0] 0 setdash
0.15 0.15 0.15 C
391.164 366.685 LS
515.108 366.685 LE
391.164 393.428 LS
515.108 393.428 LE
391.164 366.685 LS
391.164 393.428 LE
515.108 366.685 LS
515.108 393.428 LE
gsave
0 0 0 C
(Symbol Samples) [6 4 7 5 5 2 2 6 5 7 5 2 5 10] 0 406.337 383.742 9 /Helvetica SRX
grestore

gsave
0 0 0 C
(Detected Symbol Samples) [6 5 3 5 5 3 5 5 2 6 4 7 5 5 2 2 6 5 7 5 2 5 10] 0 406.337 370.371 9 /Helvetica SRX
grestore

0 LC
1 LJ
[] 0 setdash
0 0.447 0.741 C
392.964 386.742 LS
404.537 386.742 LE
0.85 0.325 0.098 C
392.964 373.371 LS
404.537 373.371 LE
grestore
grestore
showpage
cleartomark
%%PageTrailer
%%Trailer
end
%%EOF
