<?xml version="1.0" encoding="UTF-8" standalone="no"?>
<!-- Created with Inkscape (http://www.inkscape.org/) -->

<svg
   width="58.074413mm"
   height="22.556923mm"
   viewBox="0 0 58.074413 22.556923"
   version="1.1"
   id="svg5"
   inkscape:version="1.1.1 (3bf5ae0d25, 2021-09-20)"
   sodipodi:docname="whitening.svg"
   xmlns:inkscape="http://www.inkscape.org/namespaces/inkscape"
   xmlns:sodipodi="http://sodipodi.sourceforge.net/DTD/sodipodi-0.dtd"
   xmlns="http://www.w3.org/2000/svg"
   xmlns:svg="http://www.w3.org/2000/svg">
  <sodipodi:namedview
     id="namedview7"
     pagecolor="#ffffff"
     bordercolor="#999999"
     borderopacity="1"
     inkscape:pageshadow="0"
     inkscape:pageopacity="0"
     inkscape:pagecheckerboard="0"
     inkscape:document-units="mm"
     showgrid="false"
     inkscape:zoom="6.8164792"
     inkscape:cx="169.95577"
     inkscape:cy="65.649727"
     inkscape:window-width="1920"
     inkscape:window-height="1046"
     inkscape:window-x="0"
     inkscape:window-y="0"
     inkscape:window-maximized="1"
     inkscape:current-layer="g6251-2" />
  <defs
     id="defs2">
    <rect
       x="172.55527"
       y="40.024483"
       width="64.521698"
       height="28.400358"
       id="rect71112" />
    <inkscape:path-effect
       effect="skeletal"
       id="path-effect48640"
       is_visible="true"
       lpeversion="1"
       pattern="M 0,4.9921382 C 0,2.2364779 2.2364779,0 4.9921382,0 c 2.7556604,0 4.9921383,2.2364779 4.9921383,4.9921382 0,2.7556604 -2.2364779,4.9921383 -4.9921383,4.9921383 C 2.2364779,9.9842765 0,7.7477986 0,4.9921382 Z"
       copytype="single_stretched"
       prop_scale="1"
       scale_y_rel="false"
       spacing="0"
       normal_offset="0"
       tang_offset="0"
       prop_units="false"
       vertical_pattern="false"
       hide_knot="false"
       fuse_tolerance="0" />
    <marker
       style="overflow:visible"
       id="Arrow1Sstart"
       refX="0"
       refY="0"
       orient="auto"
       inkscape:stockid="Arrow1Sstart"
       inkscape:isstock="true">
      <path
         transform="matrix(0.2,0,0,0.2,1.2,0)"
         style="fill:context-stroke;fill-rule:evenodd;stroke:context-stroke;stroke-width:1pt"
         d="M 0,0 5,-5 -12.5,0 5,5 Z"
         id="path5898" />
    </marker>
    <marker
       style="overflow:visible"
       id="Arrow1Send"
       refX="0"
       refY="0"
       orient="auto"
       inkscape:stockid="Arrow1Send"
       inkscape:isstock="true">
      <path
         transform="matrix(-0.2,0,0,-0.2,-1.2,0)"
         style="fill:context-stroke;fill-rule:evenodd;stroke:context-stroke;stroke-width:1pt"
         d="M 0,0 5,-5 -12.5,0 5,5 Z"
         id="path5901" />
    </marker>
    <marker
       style="overflow:visible"
       id="Arrow1Lend"
       refX="0"
       refY="0"
       orient="auto"
       inkscape:stockid="Arrow1Lend"
       inkscape:isstock="true">
      <path
         transform="matrix(-0.8,0,0,-0.8,-10,0)"
         style="fill:context-stroke;fill-rule:evenodd;stroke:context-stroke;stroke-width:1pt"
         d="M 0,0 5,-5 -12.5,0 5,5 Z"
         id="path5889" />
    </marker>
    <inkscape:path-effect
       effect="skeletal"
       id="path-effect898"
       is_visible="true"
       lpeversion="1"
       pattern="M 0,4.9921382 C 0,2.2364779 2.2364779,0 4.9921382,0 c 2.7556604,0 4.9921383,2.2364779 4.9921383,4.9921382 0,2.7556604 -2.2364779,4.9921383 -4.9921383,4.9921383 C 2.2364779,9.9842765 0,7.7477986 0,4.9921382 Z"
       copytype="single_stretched"
       prop_scale="1"
       scale_y_rel="false"
       spacing="0"
       normal_offset="0"
       tang_offset="0"
       prop_units="false"
       vertical_pattern="false"
       hide_knot="false"
       fuse_tolerance="0" />
    <inkscape:path-effect
       effect="skeletal"
       id="path-effect894"
       is_visible="true"
       lpeversion="1"
       pattern="M 0,4.9921382 C 0,2.2364779 2.2364779,0 4.9921382,0 c 2.7556604,0 4.9921383,2.2364779 4.9921383,4.9921382 0,2.7556604 -2.2364779,4.9921383 -4.9921383,4.9921383 C 2.2364779,9.9842765 0,7.7477986 0,4.9921382 Z"
       copytype="single_stretched"
       prop_scale="1"
       scale_y_rel="false"
       spacing="0"
       normal_offset="0"
       tang_offset="0"
       prop_units="false"
       vertical_pattern="false"
       hide_knot="false"
       fuse_tolerance="0" />
    <marker
       style="overflow:visible"
       id="Arrow1Sstart-5"
       refX="0"
       refY="0"
       orient="auto"
       inkscape:stockid="Arrow1Sstart"
       inkscape:isstock="true">
      <path
         transform="matrix(0.2,0,0,0.2,1.2,0)"
         style="fill:context-stroke;fill-rule:evenodd;stroke:context-stroke;stroke-width:1pt"
         d="M 0,0 5,-5 -12.5,0 5,5 Z"
         id="path5898-2" />
    </marker>
    <marker
       style="overflow:visible"
       id="Arrow1Sstart-4"
       refX="0"
       refY="0"
       orient="auto"
       inkscape:stockid="Arrow1Sstart"
       inkscape:isstock="true">
      <path
         transform="matrix(0.2,0,0,0.2,1.2,0)"
         style="fill:context-stroke;fill-rule:evenodd;stroke:context-stroke;stroke-width:1pt"
         d="M 0,0 5,-5 -12.5,0 5,5 Z"
         id="path5898-0" />
    </marker>
  </defs>
  <g
     inkscape:label="Layer 1"
     inkscape:groupmode="layer"
     id="layer1"
     transform="translate(-0.75692569,-2.8246909)">
    <g
       id="g6251-2"
       transform="translate(0,3.439583)">
      <g
         id="g48603"
         transform="translate(-4.0581792,-0.32835653)">
        <path
           id="path10179"
           stroke-linecap="square"
           d="m 32.637557,12.091705 v 0.01852 c 0.581819,1.008063 0.917839,2.174875 0.917839,3.421063 0,1.248833 -0.33602,2.415645 -0.917839,3.423708 v 0.01588 h 3.563673 c 2.542646,0 4.7625,-1.383771 5.953125,-3.439583 -1.190625,-2.053167 -3.410479,-3.439584 -5.953125,-3.439584 z m -1.322917,0.01852 c 0.581819,1.008063 0.91784,2.174875 0.91784,3.421063 0,1.248833 -0.336021,2.415645 -0.91784,3.423708 m 10.847917,-3.423708 h 2.38125 M 29.594849,13.811497 h 2.38125 m -2.38125,3.439583 h 2.38125"
           style="fill:none;stroke:#000000;stroke-width:0.264583"
           transform="translate(0,-3.439583)" />
        <g
           id="g6251"
           transform="translate(0,-3.439583)">
          <path
             style="opacity:1;fill:none;stroke:#000000;stroke-width:0.264999;stroke-linejoin:round;marker-start:url(#Arrow1Sstart)"
             d="M 29.594849,13.811497 H 14.892702"
             id="path5633"
             sodipodi:nodetypes="cc" />
        </g>
        <path
           style="opacity:1;fill:none;stroke:#000000;stroke-width:0.264999;stroke-linejoin:round;marker-start:url(#Arrow1Sstart-5)"
           d="m 29.594849,13.811497 h -1.902828 l -3.297943,3.297942"
           id="path5633-4"
           sodipodi:nodetypes="ccc" />
      </g>
      <text
         xml:space="preserve"
         style="font-size:2.11667px;line-height:120%;font-family:sans-serif;-inkscape-font-specification:'sans-serif, Normal';text-align:center;text-anchor:middle;opacity:1;fill:#000000;fill-opacity:1;stroke:none;stroke-width:0.264999;stroke-linejoin:round"
         x="16.427256"
         y="18.961742"
         id="text23315"><tspan
           sodipodi:role="line"
           style="font-size:2.11667px;fill:#000000;fill-opacity:1;stroke:none;stroke-width:0.265"
           x="16.427256"
           y="18.961742"
           id="tspan33051">fixed whitening sequence</tspan><tspan
           sodipodi:role="line"
           style="font-size:2.11667px;fill:#000000;fill-opacity:1;stroke:none;stroke-width:0.265"
           x="16.427256"
           y="21.501747"
           id="tspan65686">(dependent on CR and SF)</tspan></text>
      <path
         style="opacity:1;fill:none;fill-opacity:1;stroke:#000000;stroke-width:0.264999;stroke-linejoin:round;stroke-opacity:1"
         d="M 17.358252,10.738311 18.715827,9.3214973"
         id="path48675"
         sodipodi:nodetypes="cc" />
      <path
         style="opacity:1;fill:none;fill-opacity:1;stroke:#000000;stroke-width:0.264999;stroke-linejoin:round;stroke-opacity:1"
         d="M 22.112984,14.197419 V 15.64604"
         id="path49175"
         sodipodi:nodetypes="cc" />
      <text
         xml:space="preserve"
         style="font-size:2.11667px;line-height:120%;font-family:sans-serif;-inkscape-font-specification:'sans-serif, Normal';text-align:start;text-anchor:start;opacity:1;fill:#000000;fill-opacity:1;stroke:none;stroke-width:0.264999;stroke-linejoin:round;stroke-opacity:1"
         x="0.64013678"
         y="0.99328095"
         id="text55966"><tspan
           sodipodi:role="line"
           id="tspan55964"
           style="text-align:start;text-anchor:start;fill:#000000;fill-opacity:1;stroke:none;stroke-width:0.265"
           x="0.64013678"
           y="0.99328095">encoded and </tspan><tspan
           sodipodi:role="line"
           style="text-align:start;text-anchor:start;fill:#000000;fill-opacity:1;stroke:none;stroke-width:0.265"
           x="0.64013678"
           y="3.5332849"
           id="tspan68966">interleaved</tspan><tspan
           sodipodi:role="line"
           style="text-align:start;text-anchor:start;fill:#000000;fill-opacity:1;stroke:none;stroke-width:0.265"
           x="0.64013678"
           y="6.0732889"
           id="tspan83652">data </tspan><tspan
           sodipodi:role="line"
           style="text-align:start;text-anchor:start;fill:#000000;fill-opacity:1;stroke:none;stroke-width:0.265"
           x="0.64013678"
           y="8.6132927"
           id="tspan83656">(symbol nums)</tspan></text>
      <path
         style="opacity:1;fill:none;fill-opacity:1;stroke:#000000;stroke-width:0.264999;stroke-linejoin:round;stroke-opacity:1;marker-end:url(#Arrow1Send)"
         d="M 40.485628,11.763348 H 52.156804"
         id="path69807" />
      <text
         xml:space="preserve"
         transform="matrix(0.26458333,0,0,0.26458333,-1.5768079,-4.7168567)"
         id="text71110"
         style="font-size:8px;line-height:120%;font-family:sans-serif;-inkscape-font-specification:'sans-serif, Normal';text-align:center;white-space:pre;shape-inside:url(#rect71112);opacity:1;fill:none;fill-opacity:1;stroke:#000000;stroke-width:1.00157;stroke-linejoin:round;stroke-opacity:1"><tspan
           x="181.09082"
           y="46.903516"
           id="tspan13185"><tspan
             style="fill:#000000;stroke:none"
             id="tspan13183">randomized
</tspan></tspan><tspan
           x="195.80566"
           y="56.503514"
           id="tspan13189"><tspan
             style="fill:#000000;stroke:none"
             id="tspan13187">data</tspan></tspan></text>
      <path
         style="opacity:1;fill:none;fill-opacity:1;stroke:#000000;stroke-width:0.264999;stroke-linejoin:round;stroke-opacity:1"
         d="m 45.040123,11.250842 -0.93319,0.933192"
         id="path83859"
         sodipodi:nodetypes="cc" />
      <text
         xml:space="preserve"
         style="font-size:1.41111px;line-height:120%;font-family:sans-serif;-inkscape-font-specification:'sans-serif, Normal';text-align:start;text-anchor:start;opacity:1;fill:#000000;fill-opacity:1;stroke:none;stroke-width:0.264999;stroke-linejoin:round;stroke-opacity:1"
         x="20.266628"
         y="14.679082"
         id="text85000"><tspan
           sodipodi:role="line"
           id="tspan84998"
           style="font-size:1.41111px;fill:#000000;fill-opacity:1;stroke:none;stroke-width:0.265"
           x="20.266628"
           y="14.679082">SF</tspan></text>
      <text
         xml:space="preserve"
         style="font-size:1.41111px;line-height:120%;font-family:sans-serif;-inkscape-font-specification:'sans-serif, Normal';text-align:start;text-anchor:start;fill:#000000;fill-opacity:1;stroke:none;stroke-width:0.264999;stroke-linejoin:round;stroke-opacity:1"
         x="17.867506"
         y="8.8915367"
         id="text85000-1"><tspan
           sodipodi:role="line"
           id="tspan84998-3"
           style="font-size:1.41111px;fill:#000000;fill-opacity:1;stroke:none;stroke-width:0.265"
           x="17.867506"
           y="8.8915367">SF</tspan></text>
      <text
         xml:space="preserve"
         style="font-size:1.41111px;line-height:120%;font-family:sans-serif;-inkscape-font-specification:'sans-serif, Normal';text-align:start;text-anchor:start;fill:#000000;fill-opacity:1;stroke:none;stroke-width:0.264999;stroke-linejoin:round;stroke-opacity:1"
         x="43.978012"
         y="10.249146"
         id="text85000-1-4"><tspan
           sodipodi:role="line"
           id="tspan84998-3-1"
           style="font-size:1.41111px;fill:#000000;fill-opacity:1;stroke:none;stroke-width:0.265"
           x="43.978012"
           y="10.249146">SF</tspan></text>
    </g>
  </g>
</svg>
